[gd_resource type="ParticlesMaterial" load_steps=5 format=2]

[sub_resource type="Gradient" id=1]

offsets = PoolRealArray( 0, 1 )
colors = PoolColorArray( 0, 0, 0, 1, 0.125, 0.125, 0.125, 1 )

[sub_resource type="GradientTexture" id=2]

flags = 4
gradient = SubResource( 1 )
width = 2048

[sub_resource type="Curve" id=3]

min_value = -0.68
max_value = 0.99
bake_resolution = 100
_data = [ Vector2( 0, -0.68 ), 0.0, 0.0, 0, 0, Vector2( 1, 0.99 ), 0.0, 0.0, 0, 0 ]
_sections_unfolded = [ "Resource" ]

[sub_resource type="CurveTexture" id=4]

flags = 4
width = 2048
curve = SubResource( 3 )

[resource]

render_priority = 0
trail_divisor = 1
emission_shape = 0
flag_align_y = false
flag_rotate_y = false
flag_disable_z = false
spread = 17.76
flatness = 0.0
gravity = Vector3( 0, 9.8, 0 )
initial_velocity = 2.7
initial_velocity_random = 0.55
angular_velocity = 8.58
angular_velocity_random = 0.0
linear_accel = -0.21
linear_accel_random = 0.0
radial_accel = 2.03
radial_accel_random = 0.0
tangential_accel = 0.0
tangential_accel_random = 0.0
damping = 8.0
damping_random = 0.0
angle = 11.3
angle_random = 0.0
scale = 1.95
scale_random = 0.0
color_ramp = SubResource( 2 )
hue_variation = 0.0
hue_variation_random = 0.0
hue_variation_curve = SubResource( 4 )
anim_speed = 0.0
anim_speed_random = 0.0
anim_offset = 0.0
anim_offset_random = 0.0
anim_loop = false

