[gd_scene load_steps=7 format=2]

[ext_resource path="res://Textures/Cloud.png" type="Texture" id=1]

[sub_resource type="SpatialMaterial" id=1]

render_priority = 0
flags_transparent = false
flags_unshaded = true
flags_vertex_lighting = false
flags_no_depth_test = false
flags_use_point_size = false
flags_world_triplanar = true
flags_fixed_size = false
flags_albedo_tex_force_srgb = false
vertex_color_use_as_albedo = true
vertex_color_is_srgb = false
params_diffuse_mode = 0
params_specular_mode = 0
params_blend_mode = 0
params_cull_mode = 0
params_depth_draw_mode = 0
params_line_width = 1.0
params_point_size = 1.0
params_billboard_mode = 3
params_grow = false
params_use_alpha_scissor = false
particles_anim_h_frames = 1
particles_anim_v_frames = 1
particles_anim_loop = 0
albedo_color = Color( 1, 1, 1, 0.497255 )
albedo_texture = ExtResource( 1 )
metallic = 0.0
metallic_specular = 0.5
metallic_texture_channel = 0
roughness = 0.0
roughness_texture_channel = 0
emission_enabled = false
normal_enabled = false
rim_enabled = false
clearcoat_enabled = false
anisotropy_enabled = false
ao_enabled = false
depth_enabled = false
subsurf_scatter_enabled = false
transmission_enabled = false
refraction_enabled = false
detail_enabled = false
uv1_scale = Vector3( 1, 1, 1 )
uv1_offset = Vector3( 0, 0, 0 )
uv1_triplanar = false
uv1_triplanar_sharpness = 1.0
uv2_scale = Vector3( 1, 1, 1 )
uv2_offset = Vector3( 0, 0, 0 )
uv2_triplanar = false
uv2_triplanar_sharpness = 1.0
proximity_fade_enable = true
proximity_fade_distance = 5.1
distance_fade_enable = false
_sections_unfolded = [ "Flags", "Proximity Fade", "Vertex Color" ]

[sub_resource type="Gradient" id=2]

offsets = PoolRealArray( 0, 0.234719, 0.894866, 1 )
colors = PoolColorArray( 0, 0, 0, 0, 0.921875, 0.66361, 0.43573, 1, 0.851562, 0.358837, 0.0632019, 1, 0, 0, 0, 0 )

[sub_resource type="GradientTexture" id=3]

flags = 4
gradient = SubResource( 2 )
width = 2048

[sub_resource type="ParticlesMaterial" id=4]

render_priority = 0
trail_divisor = 1
emission_shape = 0
flag_align_y = false
flag_rotate_y = false
flag_disable_z = false
spread = 45.0
flatness = 0.0
gravity = Vector3( 0, -9.8, 0 )
initial_velocity = 1.0
initial_velocity_random = 0.0
angular_velocity = 0.56
angular_velocity_random = 0.0
linear_accel = 0.0
linear_accel_random = 0.0
radial_accel = 0.0
radial_accel_random = 0.0
tangential_accel = 0.0
tangential_accel_random = 0.0
damping = 0.0
damping_random = 0.0
angle = 55.0
angle_random = 1.0
scale = 15.93
scale_random = 0.18
color_ramp = SubResource( 3 )
hue_variation = 1.49012e-08
hue_variation_random = 0.0
anim_speed = 0.0
anim_speed_random = 0.0
anim_offset = 0.0
anim_offset_random = 0.0
anim_loop = false
_sections_unfolded = [ "Animation", "Color", "Damping", "Emission Shape", "Scale" ]

[sub_resource type="QuadMesh" id=5]

custom_aabb = AABB( 0, 0, 0, 0, 0, 0 )
size = Vector2( 1, 1 )

[node name="Spatial" type="Spatial"]

[node name="Particles" type="Particles" parent="." index="0"]

transform = Transform( -0.0144925, 0.999895, 0, -0.999895, -0.0144925, 0, 0, 0, 1, 0, 0, 0 )
layers = 1
material_override = SubResource( 1 )
cast_shadow = 1
extra_cull_margin = 0.0
use_in_baked_light = false
lod_min_distance = 0.0
lod_min_hysteresis = 0.0
lod_max_distance = 0.0
lod_max_hysteresis = 0.0
emitting = true
amount = 8
lifetime = 1.75
one_shot = false
preprocess = 8.0
speed_scale = 0.07
explosiveness = 0.0
randomness = 1.0
fixed_fps = 0
fract_delta = true
visibility_aabb = AABB( -4, -4, -4, 8, 8, 8 )
local_coords = true
draw_order = 0
process_material = SubResource( 4 )
draw_passes = 1
draw_pass_1 = SubResource( 5 )
_sections_unfolded = [ "Draw Passes", "Geometry", "Process Material", "Time" ]


