[gd_scene load_steps=4 format=2]

[ext_resource path="res://Menus/Pause_Panel.gd" type="Script" id=1]
[ext_resource path="res://Menus/Buttons/Pause_Resume.gd" type="Script" id=2]
[ext_resource path="res://Menus/Pause_Quit.gd" type="Script" id=3]

[node name="pause_popup" type="Control"]

pause_mode = 2
anchor_left = 0.5
anchor_top = 0.0
anchor_right = 0.5
anchor_bottom = 0.0
margin_left = 138.0
margin_top = 260.0
margin_right = 508.0
margin_bottom = 600.0
rect_pivot_offset = Vector2( 0, 0 )
rect_clip_content = false
mouse_filter = 1
mouse_default_cursor_shape = 0
size_flags_horizontal = 1
size_flags_vertical = 1
_sections_unfolded = [ "Mouse", "Pause" ]

[node name="Panel" type="WindowDialog" parent="." index="0"]

pause_mode = 2
visible = false
anchor_left = 0.0
anchor_top = 0.5
anchor_right = 0.0
anchor_bottom = 0.5
margin_top = -170.0
margin_right = 370.0
margin_bottom = 170.0
rect_pivot_offset = Vector2( 0, 0 )
rect_clip_content = false
mouse_filter = 1
mouse_default_cursor_shape = 0
size_flags_horizontal = 1
size_flags_vertical = 1
popup_exclusive = false
window_title = ""
resizable = false
script = ExtResource( 1 )
_sections_unfolded = [ "Pause", "Visibility", "custom_colors" ]

[node name="RichTextLabel" type="RichTextLabel" parent="Panel" index="1"]

anchor_left = 0.0
anchor_top = 0.0
anchor_right = 0.0
anchor_bottom = 0.0
margin_top = 9.0
margin_right = 245.0
margin_bottom = 169.0
rect_scale = Vector2( 1.5, 1.5 )
rect_pivot_offset = Vector2( 0, 0 )
rect_clip_content = false
mouse_filter = 0
mouse_default_cursor_shape = 0
size_flags_horizontal = 1
size_flags_vertical = 1
bbcode_enabled = false
bbcode_text = ""
visible_characters = -1
percent_visible = 1.0
meta_underlined = true
tab_size = 4
text = "def Pause () :
   result = TruePause()
   
### AWAITING INSTRUCTION ###

   if result == \"RESUME_SIMULATION\" :
      Continue() 

 else :
      DESTROY_SIMULATION()"
scroll_active = true
scroll_following = false
selection_enabled = false
override_selected_font_color = false
_sections_unfolded = [ "Rect" ]

[node name="VBoxContainer" type="VBoxContainer" parent="Panel" index="2"]

anchor_left = 0.0
anchor_top = 1.0
anchor_right = 1.0
anchor_bottom = 1.0
margin_top = -104.0
rect_pivot_offset = Vector2( 0, 0 )
rect_clip_content = false
mouse_filter = 1
mouse_default_cursor_shape = 0
size_flags_horizontal = 1
size_flags_vertical = 1
alignment = 1
_sections_unfolded = [ "Anchor", "Margin", "Rect" ]

[node name="Pause_Resume" type="Button" parent="Panel/VBoxContainer" index="0"]

anchor_left = 0.0
anchor_top = 0.0
anchor_right = 0.0
anchor_bottom = 0.0
margin_right = 370.0
margin_bottom = 50.0
rect_min_size = Vector2( 310, 50 )
rect_pivot_offset = Vector2( 0, 0 )
rect_clip_content = false
focus_mode = 2
mouse_filter = 0
mouse_default_cursor_shape = 0
size_flags_horizontal = 1
size_flags_vertical = 1
toggle_mode = false
enabled_focus_mode = 2
shortcut = null
group = null
text = "RESUME_SIMULATION"
flat = false
align = 1
script = ExtResource( 2 )
_sections_unfolded = [ "Rect" ]

[node name="Pause_Quit" type="Button" parent="Panel/VBoxContainer" index="1"]

pause_mode = 2
anchor_left = 0.0
anchor_top = 0.0
anchor_right = 0.0
anchor_bottom = 0.0
margin_top = 54.0
margin_right = 370.0
margin_bottom = 104.0
rect_min_size = Vector2( 310, 50 )
rect_pivot_offset = Vector2( 0, 0 )
rect_clip_content = false
focus_mode = 2
mouse_filter = 0
mouse_default_cursor_shape = 0
size_flags_horizontal = 1
size_flags_vertical = 1
toggle_mode = false
enabled_focus_mode = 2
shortcut = null
group = null
text = "DESTROY_SIMULATION"
flat = false
align = 1
script = ExtResource( 3 )
_sections_unfolded = [ "Pause", "Rect" ]

[connection signal="pressed" from="Panel/VBoxContainer/Pause_Quit" to="Panel/VBoxContainer/Pause_Quit" method="_on_Pause_Quit_pressed"]


