[gd_scene format=2]

[node name="Button_Options" type="Button"]

anchor_left = 0.0
anchor_top = 0.0
anchor_right = 0.0
anchor_bottom = 0.0
margin_left = 11.0
margin_top = 471.0
margin_right = 321.0
margin_bottom = 519.0
rect_pivot_offset = Vector2( 0, 0 )
rect_clip_content = false
focus_mode = 2
mouse_filter = 0
mouse_default_cursor_shape = 0
size_flags_horizontal = 1
size_flags_vertical = 1
toggle_mode = false
enabled_focus_mode = 2
shortcut = null
group = null
text = "Options"
flat = false
align = 1
_sections_unfolded = [ "Focus", "Hint", "Mouse", "Rect", "Size Flags", "Theme", "custom_colors", "custom_constants", "custom_fonts", "custom_styles" ]


