<?xml version="1.0" encoding="utf-8"?>
<COLLADA xmlns="http://www.collada.org/2005/11/COLLADASchema" version="1.4.1" xmlns:xsi="http://www.w3.org/2001/XMLSchema-instance">
  <asset>
    <contributor>
      <author>Blender User</author>
      <authoring_tool>Blender 2.80.45 commit date:2019-02-27, commit time:00:14, hash:918941483f7e</authoring_tool>
    </contributor>
    <created>2019-03-03T22:21:17</created>
    <modified>2019-03-03T22:21:17</modified>
    <unit name="meter" meter="1"/>
    <up_axis>Z_UP</up_axis>
  </asset>
  <library_images/>
  <library_geometries>
    <geometry id="Sphere_001-mesh" name="Sphere.001">
      <mesh>
        <source id="Sphere_001-mesh-positions">
          <float_array id="Sphere_001-mesh-positions-array" count="66">-0.1183133 0.9168407 -0.5571088 0.08849024 0.4421132 -0.9737912 2.077662 1.148877 0.6621138 0.6671964 1.035609 0.2674804 2.473134 1.226764 0.3533875 1.003537 0.4380313 -0.3556019 2.930501 0.9220761 0.233597 0.03347676 -0.2168744 -1.066366 2.664567 0.2946264 0.06516623 2.541846 0.5666648 0.5848808 1.36584 -0.7759347 -0.2649228 0.6134173 -0.9912864 -0.6508256 0.2704089 -1.060706 0.07671946 -1.906933 0.1304926 0.880766 -1.225151 -0.4547018 -0.5189601 -1.973772 -0.04405206 -0.1196731 -1.845474 0.185912 0.5390327 -2.037725 0.8101755 0.1823967 -1.932824 0.5222747 -0.393966 0.4137856 0.418163 0.9768462 -1.476476 0.8423025 0.9183985 -1.502987 1.14207 0.1132623</float_array>
          <technique_common>
            <accessor source="#Sphere_001-mesh-positions-array" count="22" stride="3">
              <param name="X" type="float"/>
              <param name="Y" type="float"/>
              <param name="Z" type="float"/>
            </accessor>
          </technique_common>
        </source>
        <source id="Sphere_001-mesh-normals">
          <float_array id="Sphere_001-mesh-normals-array" count="120">0.4729687 0.6885495 -0.5497273 -0.1097478 0.9880006 0.1086749 0.3645167 0.7625032 -0.5345247 -0.04167616 0.7097628 -0.7032068 0.1267969 0.5219599 -0.8434931 0.5586648 0.06946545 -0.8264795 0.254866 0.1484738 -0.9555098 0.7892691 -0.4474136 0.4205654 0.02122813 0.93717 0.3482268 0.4167777 -0.1673134 -0.8934779 0.4750908 -0.728513 0.4935156 0.0293805 -0.5217766 0.8525761 -0.8056733 0.5903164 -0.04916512 -0.03762769 -0.03005248 0.9988399 -0.5769473 -0.3218691 -0.7506878 -0.3701616 -0.1508523 -0.9166373 -0.9576473 -0.1570408 0.2413501 -0.8520339 0.5189081 -0.0690838 -0.4689449 0.8225587 0.3216955 -0.2138782 0.7032211 -0.6780386 0.04125285 0.3145369 0.9483485 0.1802334 0.01322567 0.9835351 0.0621851 0.9778055 -0.2000741 0.4936636 0.4479798 0.7453928 -0.984847 -0.01256626 -0.1729701 0.2519683 0.515583 -0.8189543 0.4894815 0.2807344 0.8255885 0.5057465 -0.3738108 -0.777487 0.3715155 -0.7066039 0.6022352 0.2604426 -0.9650009 0.03071153 -0.2878135 -0.9309952 -0.2245246 0.1895177 -0.5238434 0.8304645 -0.2270528 -0.5870109 -0.7770877 -0.4186975 -0.8975649 0.1380929 -0.4189233 -0.8893585 0.1831528 -0.7933614 0.09883236 0.6006747 -0.2666485 0.1558713 -0.9511061 -0.5110113 0.7281841 -0.4567445 -0.1995139 0.5958731 -0.7779008 -0.08472067 0.9962623 0.01685386</float_array>
          <technique_common>
            <accessor source="#Sphere_001-mesh-normals-array" count="40" stride="3">
              <param name="X" type="float"/>
              <param name="Y" type="float"/>
              <param name="Z" type="float"/>
            </accessor>
          </technique_common>
        </source>
        <source id="Sphere_001-mesh-map-0">
          <float_array id="Sphere_001-mesh-map-0-array" count="240">0.754724 0.3487627 0.6805806 0.5819003 0.7079278 0.1689414 0.6144425 0.8190777 0.5783 0.7124291 0.6805806 0.5819003 0.6805806 0.5819003 0.5761454 0.4058729 0.7079278 0.1689414 0.5783 0.7124291 0.5761454 0.4058729 0.6805806 0.5819003 0.5783 0.7124291 0.5020795 0.6841781 0.5761454 0.4058729 0.5761454 0.4058729 0.326828 0.1282005 0.7079278 0.1689414 0.5761454 0.4058729 0.5020795 0.6841781 0.4122556 0.6127966 0.5020795 0.6841781 0.3928918 0.8031139 0.4122556 0.6127966 0.9101098 0.8055689 0.6805806 0.5819003 0.8668175 0.5702993 0.326828 0.1282005 0.4122556 0.6127966 0.3263211 0.3550397 0.4122556 0.6127966 0.3928918 0.8031139 0.3376899 0.4993629 0.2622369 0.5492012 0.1109906 0.9029577 0.09817034 0.7780728 0.06607526 0.6984327 0.07217681 0.5049648 0.09817034 0.7780728 0.09817034 0.7780728 0.1109906 0.9029577 0.006173312 0.875 0.07217681 0.5049648 0.008576035 0.4060994 0.1264879 0.3608381 0.1264879 0.3608381 0.008576035 0.4060994 0.1169439 0.109669 0.06607526 0.6984327 0 0.5935369 0.07217681 0.5049648 1 0.7520578 0.994641 0.8125 0.9101098 0.8055689 0.9101098 0.8055689 0.8668175 0.5702993 0.9513422 0.592037 0.9747787 0.4214287 0.8668175 0.5702993 0.754724 0.3487627 0.9596961 0.9375 0.6144425 0.8190777 0.9101098 0.8055689 0.9596961 0.9375 0.8281252 1 0.6144425 0.8190777 0.754724 0.3487627 0.8668175 0.5702993 0.6805806 0.5819003 0.5783 0.7124291 0.6144425 0.8190777 0.5020795 0.6841781 0.008576035 0.4060994 0.07217681 0.5049648 0 0.5935369 0.326828 0.1282005 0.5761454 0.4058729 0.4122556 0.6127966 0.5020795 0.6841781 0.6144425 0.8190777 0.3928918 0.8031139 0.3263211 0.3550397 0.4122556 0.6127966 0.3376899 0.4993629 0.3376899 0.4993629 0.3928918 0.8031139 0.2622369 0.5492012 0.3263211 0.3550397 0.3376899 0.4993629 0.2622369 0.5492012 0.3263211 0.3550397 0.2622369 0.5492012 0.1264879 0.3608381 0.2622369 0.5492012 0.3928918 0.8031139 0.1109906 0.9029577 0.326828 0.1282005 0.3263211 0.3550397 0.1264879 0.3608381 0.2622369 0.5492012 0.07217681 0.5049648 0.1264879 0.3608381 0.2622369 0.5492012 0.09817034 0.7780728 0.07217681 0.5049648 1 0.7520578 0.9101098 0.8055689 0.9513422 0.592037 1 0.1875 0.9747787 0.4214287 0.7079278 0.1689414 0.9747787 0.4214287 0.9513422 0.592037 0.8668175 0.5702993 0.7079278 0.1689414 0.9747787 0.4214287 0.754724 0.3487627 0.9101098 0.8055689 0.6144425 0.8190777 0.6805806 0.5819003</float_array>
          <technique_common>
            <accessor source="#Sphere_001-mesh-map-0-array" count="120" stride="2">
              <param name="S" type="float"/>
              <param name="T" type="float"/>
            </accessor>
          </technique_common>
        </source>
        <vertices id="Sphere_001-mesh-vertices">
          <input semantic="POSITION" source="#Sphere_001-mesh-positions"/>
        </vertices>
        <triangles count="40">
          <input semantic="VERTEX" source="#Sphere_001-mesh-vertices" offset="0"/>
          <input semantic="NORMAL" source="#Sphere_001-mesh-normals" offset="1"/>
          <input semantic="TEXCOORD" source="#Sphere_001-mesh-map-0" offset="2" set="0"/>
          <p>0 0 0 3 0 1 1 0 2 2 1 3 4 1 4 3 1 5 3 2 6 5 2 7 1 2 8 4 3 9 5 3 10 3 3 11 4 4 12 6 4 13 5 4 14 5 5 15 7 5 16 1 5 17 5 6 18 6 6 19 8 6 20 6 7 21 9 7 22 8 7 23 20 8 24 3 8 25 21 8 26 7 9 27 8 9 28 11 9 29 8 10 30 9 10 31 10 10 32 12 11 33 19 11 34 13 11 35 16 12 36 15 12 37 13 12 38 13 13 39 19 13 40 20 13 41 15 14 42 18 14 43 14 14 44 14 15 45 18 15 46 7 15 47 16 16 48 17 16 49 15 16 50 16 17 51 13 17 52 20 17 53 20 18 54 21 18 55 17 18 56 18 19 57 21 19 58 0 19 59 19 20 60 2 20 61 20 20 62 19 21 63 9 21 64 2 21 65 0 22 66 21 22 67 3 22 68 4 23 69 2 23 70 6 23 71 18 24 72 15 24 73 17 24 74 7 25 75 5 25 76 8 25 77 6 26 78 2 26 79 9 26 80 11 27 81 8 27 82 10 27 83 10 28 84 9 28 85 12 28 86 11 29 87 10 29 88 12 29 89 11 30 90 12 30 91 14 30 92 12 31 93 9 31 94 19 31 95 7 32 96 11 32 97 14 32 98 12 33 99 15 33 100 14 33 101 12 34 102 13 34 103 15 34 104 16 35 105 20 35 106 17 35 107 7 36 108 18 36 109 1 36 110 18 37 111 17 37 112 21 37 113 1 38 114 18 38 115 0 38 116 20 39 117 2 39 118 3 39 119</p>
        </triangles>
      </mesh>
    </geometry>
    <geometry id="Sphere-mesh" name="Sphere">
      <mesh>
        <source id="Sphere-mesh-positions">
          <float_array id="Sphere-mesh-positions-array" count="168">0.4424082 0.9016367 0.8487974 -0.8412926 1.141501 0.0593301 -0.03051048 0.9532466 -0.4520453 0.5126368 1.032577 0.434145 1.951817 1.221517 0.5686305 0.2180885 0.6396942 -0.7625309 2.253441 1.094425 0.668473 0.7250482 0.8669931 -0.01382899 2.114096 1.214633 0.3000084 2.580074 1.170009 0.3986968 1.003537 0.4380313 -0.3556019 0.275019 0.2576565 -0.9543129 2.715484 1.012137 0.4935922 2.679534 0.8528695 -0.00477457 1.051384 -0.06259208 -0.6066294 2.897359 0.8310932 0.2286734 2.718641 0.390377 0.04303938 1.942069 -0.0513485 -0.2704784 0.5139868 -0.2568132 -0.9095939 2.674615 0.3071544 0.1604831 1.262826 -0.7622084 -0.4085267 2.612621 0.4562622 0.4496778 1.215642 -0.8026282 -0.1089985 0.670271 -0.7524369 -0.7627189 0.4640932 -1.044681 -0.5422712 0.9195069 -0.5161609 0.4166944 0.2307299 -1.028374 -0.0164678 -0.08722412 -1.011083 -0.1709021 -1.37183 -0.3301866 0.5167654 -0.5209853 -0.7973355 -0.4598881 0.5402953 0.3265635 0.9349822 2.303931 0.682808 0.6798853 -0.1861781 -0.4720674 -0.9142138 -1.875752 0.3477239 0.9306526 -1.80911 0.01069283 0.7731584 -1.683149 -0.09346055 0.3791162 -1.679099 -0.2902915 -0.1099528 -1.434475 -0.2572051 -0.5183298 -2.049632 0.2282114 0.1289176 -1.972386 0.09111738 -0.2239565 -0.07546067 -0.102437 -1.012567 -1.845295 0.3648325 0.5717347 -1.657734 0.2353114 -0.5615522 -0.7570066 -0.09219723 -0.8827117 -2.071425 0.634694 0.1854709 -2.034306 0.5370731 -0.1971941 -1.603817 0.8224869 0.7869964 -1.941192 0.9034261 0.1686855 -1.675367 0.6999003 -0.4300046 -1.36478 0.6919667 1.014814 -1.64059 1.033538 -0.05104559 0.1103906 0.5066452 0.994225 -0.3835523 0.3735625 -0.9458766 -1.11756 0.9840114 0.8048703 -1.313843 1.120315 0.4228898 -0.410232 0.8034658 -0.6465803</float_array>
          <technique_common>
            <accessor source="#Sphere-mesh-positions-array" count="56" stride="3">
              <param name="X" type="float"/>
              <param name="Y" type="float"/>
              <param name="Z" type="float"/>
            </accessor>
          </technique_common>
        </source>
        <source id="Sphere-mesh-normals">
          <float_array id="Sphere-mesh-normals-array" count="324">0.2426559 0.9417101 -0.2330242 0.3752899 0.7852359 -0.492506 -0.120519 0.9878496 -0.09812486 0.4569938 0.7165549 -0.5269781 0.2001824 0.8533083 0.4814479 0.4992997 0.4469978 -0.7422215 0.01772058 0.6300553 -0.7763481 4.37155e-4 0.6447088 -0.7644282 0.5100505 0.4240065 -0.7483763 0.7420798 0.6682291 0.05279815 0.4500705 0.1322901 -0.8831399 0.1667703 0.1503315 -0.9744681 0.4030005 -0.06033504 -0.9132089 0.3107404 0.4479184 -0.8383374 0.5111966 -0.1612873 0.8441945 0.8299329 -0.4030337 0.3857139 0.1704373 -0.006481528 -0.9853472 0.4207581 -0.1332427 -0.8973345 0.6061994 -0.4521806 -0.6542592 0.3432801 -0.9364469 -0.07229202 0.4724059 -0.7380393 0.4817995 -0.04626101 -0.5805585 -0.8129034 0.2344881 -0.7920077 0.5636835 0.2635166 -0.4870594 0.8326658 -0.05703586 -0.9983562 0.005648434 0.01111912 -0.5202013 0.8539714 -0.6562055 -0.7018832 0.2770457 0.1409868 0.01090288 0.9899515 -0.3394047 -0.4411249 -0.8307908 -0.9425274 -0.2326892 -0.2397873 -0.984175 -0.1521868 -0.09076738 -0.7400444 -0.4657534 0.4851886 -0.7295182 -0.6365739 0.2501538 -0.01378172 -0.2181153 0.9758257 -0.6112155 -0.3397955 -0.7148109 -0.4070835 -0.2613384 -0.8752059 -0.8892563 -0.1094664 0.4441176 -0.1868968 0.016649 -0.9822385 -0.5950313 0.1979714 -0.7789385 -0.8731853 0.484714 -0.05098998 -0.3043385 0.2488032 -0.9194973 -0.7783518 0.4070604 0.4779857 -0.8876871 0.4181478 -0.1927803 -0.601879 0.6357009 -0.4833489 -0.4500906 0.4847322 0.7499687 -0.4280588 0.8361248 0.3430179 -0.1710996 0.7472292 -0.6421633 -0.2563871 0.697825 0.6688094 0.0517627 0.3064375 0.9504824 -0.1198742 0.9879165 -0.09824055 0.1382196 0.0443865 0.9894065 -0.06223583 0.9005815 -0.4302091 0.06884253 0.455752 -0.8874407 0.01322466 0.1471295 -0.9890289 0.06338101 0.7271314 -0.6835662 0.1240354 0.978693 -0.1636319 0.009860813 0.6320988 0.7748252 -0.1503367 0.9497742 0.2744594 -0.136524 0.9063948 -0.3997622 0.08931744 0.9955971 0.02844059 0.1978239 0.7937644 -0.5751554 0.3608492 0.6879838 0.6296557 0.5381962 0.7219882 -0.4348309 -0.9954348 -0.04140466 -0.08599603 0.310417 0.4496346 -0.8375381 0.364052 0.0704059 0.9287138 0.7307117 -0.008785963 -0.6826297 0.7448329 -0.1883977 0.6401018 0.9156157 -0.3972913 0.06170588 0.5634778 -0.7588669 -0.326518 0.4850414 -0.3042528 -0.8198568 0.3530104 -0.7092989 -0.6101465 0.08571159 -0.2581436 -0.962297 0.09297865 -0.2819405 -0.9549161 0.6067402 -0.7948144 -0.01167702 0.3895546 -0.698621 0.6001465 0.233305 -0.9632072 0.1334189 -0.01744109 -0.6318504 0.7748941 -0.2465523 -0.8784784 0.4092528 -0.2558336 -0.9201109 -0.2965553 0.2149419 -0.4396241 0.8720841 -0.2324927 -0.7015681 -0.6736092 -0.4135694 -0.90901 -0.05158734 -0.01531183 -0.6135004 0.7895461 -0.4039202 -0.9039416 0.1404924 -0.6093445 -0.7927683 0.01475936 -0.4617632 -0.8180512 -0.3428803 -0.005338132 -0.4242157 0.9055455 -0.3307206 -0.6348779 -0.6982507 -0.1862778 -0.20015 -0.9618943 -0.004518389 -0.3222153 0.9466556 -0.6450687 -0.6267054 -0.4371804 -0.799619 -0.5977772 0.05720067 0.04155093 0.9507188 0.307258 -0.7178118 -0.05803006 -0.6938147 -0.8027769 0.1524339 0.5764662 -0.2979648 0.1103241 -0.9481801 -0.6210358 0.6156674 -0.4850446 -0.3516878 0.9333779 0.07156538 -0.1843358 0.5538423 -0.81196 -0.2960789 0.8412677 0.4523338 0.007646322 0.5794104 0.8150002 0.06316596 0.2976282 0.9525899 -0.08218234 0.8607652 -0.5023241 -0.00256741 0.5712553 -0.8207685 0.04691153 0.9918127 0.1187729 -0.9781885 -0.1259021 -0.1652145 0.04358398 0.9478188 0.3158167</float_array>
          <technique_common>
            <accessor source="#Sphere-mesh-normals-array" count="108" stride="3">
              <param name="X" type="float"/>
              <param name="Y" type="float"/>
              <param name="Z" type="float"/>
            </accessor>
          </technique_common>
        </source>
        <source id="Sphere-mesh-map-0">
          <float_array id="Sphere-mesh-map-0-array" count="648">0.6975204 0.6433901 0.6542617 0.4863647 0.7356764 0.3720997 0.7356764 0.3720997 0.6542617 0.4863647 0.6871295 0.2317364 0.6441788 0.7615418 0.6084121 0.6672196 0.6975204 0.6433901 0.6542617 0.4863647 0.5761454 0.4058729 0.6871295 0.2317364 0.6441788 0.7615418 0.5802459 0.8709627 0.5683515 0.7273655 0.6871295 0.2317364 0.5761454 0.4058729 0.6099607 0.1321727 0.6084121 0.6672196 0.5761454 0.4058729 0.6542617 0.4863647 0.6084121 0.6672196 0.5167665 0.5860498 0.5761454 0.4058729 0.5761454 0.4058729 0.5047238 0.3405588 0.6099607 0.1321727 0.5683515 0.7273655 0.5173633 0.7766105 0.4875853 0.6666115 0.5047238 0.3405588 0.4399781 0.1688587 0.6099607 0.1321727 0.5761454 0.4058729 0.5167665 0.5860498 0.4171717 0.4753158 0.5167665 0.5860498 0.4250444 0.602831 0.4171717 0.4753158 0.5047238 0.3405588 0.4171717 0.4753158 0.4399781 0.1688587 0.3954984 0.8715648 0.3912205 0.7592242 0.5173633 0.7766105 0.4875853 0.6666115 0.3912205 0.7592242 0.3885418 0.6686772 0.4399781 0.1688587 0.2843212 0.04448086 0.6099607 0.1321727 0.4399781 0.1688587 0.4171717 0.4753158 0.3650988 0.2990854 0.4171717 0.4753158 0.3885418 0.6686772 0.3554602 0.461289 0.3554602 0.461289 0.3125 0.5533342 0.3006417 0.392094 0.3885418 0.6686772 0.3912205 0.7592242 0.3125 0.5533342 0.3650988 0.2990854 0.3006417 0.392094 0.2266436 0.1791813 0.3125 0.5533342 0.2649895 0.7094681 0.2743591 0.5350571 0.3912205 0.7592242 0.3954984 0.8715648 0.2649895 0.7094681 0.2743591 0.5350571 0.2423231 0.4848804 0.3006417 0.392094 0.2649895 0.7094681 0.1753193 0.885765 0.1319515 0.7454635 0.12224 0.657513 0.1190853 0.4992696 0.1897588 0.6575682 0.1753193 0.885765 0.1093753 1 -0.01825362 0.9375 0.09954035 0.354959 0.06476324 0.1818495 0.2266436 0.1791813 0.1319515 0.7454635 0.0393005 0.7179399 0.12224 0.657513 0.06680792 0.8124213 0.0393005 0.7179399 0.1319515 0.7454635 0.0393005 0.7179399 0.04593127 0.5805324 0.12224 0.657513 0.12224 0.657513 0.04593127 0.5805324 0.1190853 0.4992696 0.06680792 0.8124213 -0.01825362 0.9375 0.006173312 0.875 0.05448043 0.4646207 0.01646405 0.3453768 0.09954035 0.354959 0.09954035 0.354959 0.01646405 0.3453768 0.06476324 0.1818495 0.0393005 0.7179399 0 0.5935369 0.04593127 0.5805324 0.06476324 0.1818495 1.68778e-7 0.09170931 0.05188226 0.02171379 0.9861075 0.4721184 0.9412379 0.3934437 1 0.3460747 1 0.7520578 0.994641 0.8125 0.9207761 0.7972627 1 0.3460747 0.9412379 0.3934437 0.8762395 0.1344627 0.9207761 0.7972627 0.9297334 0.5888344 0.980791 0.5964015 0.980791 0.5964015 0.9297334 0.5888344 0.9861075 0.4721184 0.9861075 0.4721184 0.9297334 0.5888344 0.9412379 0.3934437 0.9594844 0.875 0.9207761 0.7972627 0.994641 0.8125 0.9207761 0.7972627 0.848927 0.6473605 0.9297334 0.5888344 0.9412379 0.3934437 0.8893064 0.5209745 0.8014279 0.2915412 0.9594844 0.875 0.8415256 0.7812317 0.9207761 0.7972627 0.9596961 0.9375 0.7582643 0.8184223 0.9594844 0.875 0.8893064 0.5209745 0.848927 0.6473605 0.8083893 0.5349509 0.9596961 0.9375 0.8281252 1 0.5802459 0.8709627 0.8893064 0.5209745 0.8083893 0.5349509 0.7356764 0.3720997 0.8762395 0.1344627 0.6871295 0.2317364 0.6099607 0.1321727 0.765625 0 0.8762395 0.1344627 0.6099607 0.1321727 0.8014279 0.2915412 0.7356764 0.3720997 0.6871295 0.2317364 0.7356764 0.3720997 0.8083893 0.5349509 0.6975204 0.6433901 0.7582643 0.8184223 0.5802459 0.8709627 0.6441788 0.7615418 0.7582643 0.8184223 0.6441788 0.7615418 0.6975204 0.6433901 0.6975204 0.6433901 0.6084121 0.6672196 0.6542617 0.4863647 0.6441788 0.7615418 0.5683515 0.7273655 0.6084121 0.6672196 0.6084121 0.6672196 0.5683515 0.7273655 0.5167665 0.5860498 0.5683515 0.7273655 0.5802459 0.8709627 0.5173633 0.7766105 0.5683515 0.7273655 0.4875853 0.6666115 0.5167665 0.5860498 0 0.4721184 0.04593127 0.5805324 0 0.5935369 0.5047238 0.3405588 0.5761454 0.4058729 0.4171717 0.4753158 0.5173633 0.7766105 0.5802459 0.8709627 0.3954984 0.8715648 0.5167665 0.5860498 0.4875853 0.6666115 0.4250444 0.602831 0.4875853 0.6666115 0.5173633 0.7766105 0.3912205 0.7592242 0.4250444 0.602831 0.4875853 0.6666115 0.3885418 0.6686772 0.4171717 0.4753158 0.4250444 0.602831 0.3885418 0.6686772 0.3650988 0.2990854 0.4171717 0.4753158 0.3554602 0.461289 0.3650988 0.2990854 0.3554602 0.461289 0.3006417 0.392094 0.4399781 0.1688587 0.3650988 0.2990854 0.2266436 0.1791813 0.2843212 0.04448086 0.4399781 0.1688587 0.2266436 0.1791813 0.3554602 0.461289 0.3885418 0.6686772 0.3125 0.5533342 0.3125 0.5533342 0.3912205 0.7592242 0.2649895 0.7094681 0.3006417 0.392094 0.3125 0.5533342 0.2743591 0.5350571 0.2743591 0.5350571 0.2649895 0.7094681 0.1897588 0.6575682 0.2743591 0.5350571 0.1897588 0.6575682 0.2423231 0.4848804 0.3006417 0.392094 0.2423231 0.4848804 0.2017399 0.3772559 0.2649895 0.7094681 0.3954984 0.8715648 0.1753193 0.885765 0.2266436 0.1791813 0.3006417 0.392094 0.2017399 0.3772559 0.2423231 0.4848804 0.1190853 0.4992696 0.2017399 0.3772559 0.1897588 0.6575682 0.2649895 0.7094681 0.1319515 0.7454635 0.2423231 0.4848804 0.1897588 0.6575682 0.1190853 0.4992696 0.1897588 0.6575682 0.1319515 0.7454635 0.12224 0.657513 0.2017399 0.3772559 0.1190853 0.4992696 0.09954035 0.354959 0.1319515 0.7454635 0.1753193 0.885765 0.06680792 0.8124213 0.2017399 0.3772559 0.09954035 0.354959 0.2266436 0.1791813 0.2266436 0.1791813 0.06476324 0.1818495 0.05188226 0.02171379 0.06680792 0.8124213 0.1753193 0.885765 -0.01825362 0.9375 0.1190853 0.4992696 0.05448043 0.4646207 0.09954035 0.354959 0.1190853 0.4992696 0.04593127 0.5805324 0.05448043 0.4646207 0.6975204 0.6433901 0.8415256 0.7812317 0.7582643 0.8184223 0.05448043 0.4646207 0 0.4721184 0.01646405 0.3453768 1 0.7520578 0.9207761 0.7972627 0.980791 0.5964015 1 0.1875 1 0.3460747 0.8762395 0.1344627 0.9412379 0.3934437 0.9297334 0.5888344 0.8893064 0.5209745 0.9297334 0.5888344 0.848927 0.6473605 0.8893064 0.5209745 0.8762395 0.1344627 0.9412379 0.3934437 0.8014279 0.2915412 0.9207761 0.7972627 0.8415256 0.7812317 0.848927 0.6473605 0.9594844 0.875 0.7582643 0.8184223 0.8415256 0.7812317 0.9596961 0.9375 0.5802459 0.8709627 0.7582643 0.8184223 0.8014279 0.2915412 0.8893064 0.5209745 0.7356764 0.3720997 0.8762395 0.1344627 0.8014279 0.2915412 0.6871295 0.2317364 0.8083893 0.5349509 0.848927 0.6473605 0.6975204 0.6433901 0 0.4721184 0.05448043 0.4646207 0.04593127 0.5805324 0.6975204 0.6433901 0.848927 0.6473605 0.8415256 0.7812317</float_array>
          <technique_common>
            <accessor source="#Sphere-mesh-map-0-array" count="324" stride="2">
              <param name="S" type="float"/>
              <param name="T" type="float"/>
            </accessor>
          </technique_common>
        </source>
        <vertices id="Sphere-mesh-vertices">
          <input semantic="POSITION" source="#Sphere-mesh-positions"/>
        </vertices>
        <triangles count="108">
          <input semantic="VERTEX" source="#Sphere-mesh-vertices" offset="0"/>
          <input semantic="NORMAL" source="#Sphere-mesh-normals" offset="1"/>
          <input semantic="TEXCOORD" source="#Sphere-mesh-map-0" offset="2" set="0"/>
          <p>3 0 0 7 0 1 2 0 2 2 1 3 7 1 4 5 1 5 4 2 6 8 2 7 3 2 8 7 3 9 10 3 10 5 3 11 4 4 12 6 4 13 9 4 14 5 5 15 10 5 16 11 5 17 8 6 18 10 6 19 7 6 20 8 7 21 13 7 22 10 7 23 10 8 24 14 8 25 11 8 26 9 9 27 12 9 28 15 9 29 14 10 30 18 10 31 11 10 32 10 11 33 13 11 34 17 11 35 13 12 36 16 12 37 17 12 38 14 13 39 17 13 40 18 13 41 31 14 42 21 14 43 12 14 44 15 15 45 21 15 46 19 15 47 18 16 48 40 16 49 11 16 50 18 17 51 17 17 52 23 17 53 17 18 54 19 18 55 20 18 56 20 19 57 22 19 58 24 19 59 19 20 60 21 20 61 22 20 62 23 21 63 24 21 64 32 21 65 22 22 66 25 22 67 26 22 68 21 23 69 31 23 70 25 23 71 26 24 72 27 24 73 24 24 74 25 25 75 30 25 76 34 25 77 35 26 78 36 26 79 28 26 80 30 27 81 31 27 82 51 27 83 37 28 84 43 28 85 32 28 86 34 29 87 41 29 88 35 29 89 33 30 90 41 30 91 34 30 92 41 31 93 38 31 94 35 31 95 35 32 96 38 32 97 36 32 98 33 33 99 51 33 100 49 33 101 39 34 102 42 34 103 37 34 104 37 35 105 42 35 106 43 35 107 41 36 108 44 36 109 38 36 110 43 37 111 52 37 112 40 37 113 45 38 114 48 38 115 42 38 116 41 39 117 33 39 118 46 39 119 42 40 120 48 40 121 52 40 122 46 41 123 47 41 124 44 41 125 44 42 126 47 42 127 45 42 128 45 43 129 47 43 130 48 43 131 49 44 132 46 44 133 33 44 134 46 45 135 54 45 136 47 45 137 48 46 138 50 46 139 55 46 140 49 47 141 53 47 142 46 47 143 51 48 144 0 48 145 49 48 146 50 49 147 54 49 148 1 49 149 51 50 150 31 50 151 6 50 152 50 51 153 1 51 154 2 51 155 52 52 156 5 52 157 11 52 158 40 53 159 52 53 160 11 53 161 55 54 162 2 54 163 5 54 164 2 55 165 1 55 166 3 55 167 0 56 168 6 56 169 4 56 170 0 57 171 4 57 172 3 57 173 3 58 174 8 58 175 7 58 176 4 59 177 9 59 178 8 59 179 8 60 180 9 60 181 13 60 182 9 61 183 6 61 184 12 61 185 9 62 186 15 62 187 13 62 188 45 63 189 38 63 190 44 63 191 14 64 192 10 64 193 17 64 194 12 65 195 6 65 196 31 65 197 13 66 198 15 66 199 16 66 200 15 67 201 12 67 202 21 67 203 16 68 204 15 68 205 19 68 206 17 69 207 16 69 208 19 69 209 23 70 210 17 70 211 20 70 212 23 71 213 20 71 214 24 71 215 18 72 216 23 72 217 32 72 218 40 73 219 18 73 220 32 73 221 20 74 222 19 74 223 22 74 224 22 75 225 21 75 226 25 75 227 24 76 228 22 76 229 26 76 230 26 77 231 25 77 232 28 77 233 26 78 234 28 78 235 27 78 236 24 79 237 27 79 238 29 79 239 25 80 240 31 80 241 30 80 242 32 81 243 24 81 244 29 81 245 27 82 246 36 82 247 29 82 248 28 83 249 25 83 250 34 83 251 27 84 252 28 84 253 36 84 254 28 85 255 34 85 256 35 85 257 29 86 258 36 86 259 37 86 260 34 87 261 30 87 262 33 87 263 29 88 264 37 88 265 32 88 266 32 89 267 43 89 268 40 89 269 33 90 270 30 90 271 51 90 272 36 91 273 39 91 274 37 91 275 36 92 276 38 92 277 39 92 278 3 93 279 53 93 280 0 93 281 39 94 282 45 94 283 42 94 284 41 95 285 46 95 286 44 95 287 43 96 288 42 96 289 52 96 290 48 97 291 47 97 292 50 97 293 47 98 294 54 98 295 50 98 296 52 99 297 48 99 298 55 99 299 46 100 300 53 100 301 54 100 302 49 101 303 0 101 304 53 101 305 51 102 306 6 102 307 0 102 308 55 103 309 50 103 310 2 103 311 52 104 312 55 104 313 5 104 314 1 105 315 54 105 316 3 105 317 45 106 318 39 106 319 38 106 320 3 107 321 54 107 322 53 107 323</p>
        </triangles>
      </mesh>
    </geometry>
  </library_geometries>
  <library_visual_scenes>
    <visual_scene id="Scene" name="Scene">
      <node id="Rock1-colonly" name="Rock1-colonly" type="NODE">
        <matrix sid="transform">1 0 0 0 0 1 0 0 0 0 1 0 0 0 0 1</matrix>
        <instance_geometry url="#Sphere_001-mesh" name="Rock1-colonly"/>
      </node>
      <node id="Rock1" name="Rock1" type="NODE">
        <matrix sid="transform">1 0 0 0 0 1 0 0 0 0 1 0 0 0 0 1</matrix>
        <instance_geometry url="#Sphere-mesh" name="Rock1"/>
      </node>
    </visual_scene>
  </library_visual_scenes>
  <scene>
    <instance_visual_scene url="#Scene"/>
  </scene>
</COLLADA>