# Blender v2.80 (sub 53) OBJ File: 'Cave_CurveDown.blend'
# www.blender.org
mtllib Cave_Mushrock.mtl
o Mush_Rock_Sphere
v -0.729347 1.113006 -0.317529
v -0.639929 0.322797 -4.276515
v -0.285480 -0.456601 -3.884567
v -0.552158 1.194582 -2.764914
v 0.801707 -0.054836 -4.094471
v 0.435549 1.014252 -3.639382
v 1.468591 0.269207 -3.714636
v 1.119880 -0.873894 -2.945957
v 2.094353 -0.460053 -2.891737
v 2.435620 0.280801 -2.703544
v 2.121066 1.513932 -2.153564
v 3.173486 -0.226426 -1.686815
v 2.485691 -0.867784 -1.463409
v 2.345287 0.870152 0.319214
v 3.121595 0.493963 -0.420326
v 3.235490 -0.191642 0.620168
v 2.941860 -1.207507 1.190712
v 1.770998 1.216862 1.840237
v 2.348649 0.385123 2.539332
v 2.220996 -0.387177 2.846392
v 1.551121 -0.142202 3.832639
v 0.861998 0.621152 3.565408
v 0.243070 -0.045473 4.143431
v 0.639970 -0.853247 3.491746
v -0.398387 0.855338 3.542911
v -0.950773 -0.542383 3.973834
v -1.295773 0.306037 4.028014
v 0.954008 1.204771 -0.441661
v -1.856301 0.849579 1.994207
v -2.029435 -0.661657 3.121906
v -0.369212 1.113242 1.704125
v -2.331096 0.225473 2.642263
v -2.566830 -0.497799 1.803330
v -2.950451 0.263379 1.242330
v -2.207819 0.980015 -0.169301
v -3.030566 -0.167049 -0.569693
v -2.893798 0.438434 -1.174494
v -1.907403 0.417644 -3.082554
v -2.194887 -0.165106 -2.569882
v -1.663529 0.953869 -1.791626
v -1.481130 -0.156681 -3.750798
vt 0.528732 0.212492
vt 0.506681 0.111764
vt 0.628705 0.158583
vt 0.627745 0.049696
vt 0.393974 0.000090
vt 0.449836 0.153823
vt 0.347146 0.115281
vt 0.408000 0.429632
vt 0.384341 0.278615
vt 0.174706 0.134076
vt 0.350201 0.190323
vt 0.247539 0.216493
vt 0.235167 0.331612
vt 0.267651 0.426386
vt 0.133058 0.381111
vt 0.000090 0.401578
vt 0.142329 0.595780
vt 0.048339 0.649526
vt 0.143870 0.758913
vt 0.085433 0.903202
vt 0.241203 0.745999
vt 0.234476 0.855986
vt 0.346496 0.796682
vt 0.425770 0.649013
vt 0.390823 0.896478
vt 0.332045 0.997078
vt 0.540240 0.742265
vt 0.533053 0.497517
vt 0.545560 0.999910
vt 0.565476 0.853590
vt 0.720475 0.859706
vt 0.688524 0.733417
vt 0.818641 0.575102
vt 0.650083 0.562451
vt 0.764787 0.499444
vt 0.658643 0.404072
vt 0.818641 0.327413
vt 0.737340 0.286046
vt 0.742332 0.176288
vt 0.587068 0.296594
vt 0.256613 0.567600
vn 0.2262 0.4461 -0.8659
vn 0.1715 -0.7790 -0.6031
vn 0.2647 0.4530 -0.8513
vn 0.5838 -0.3341 -0.7400
vn -0.2737 0.9617 -0.0129
vn 0.3827 -0.8554 -0.3490
vn 0.6456 0.4423 -0.6225
vn 0.7497 -0.1838 -0.6358
vn 0.8841 0.3589 -0.2991
vn 0.5683 -0.7369 -0.3661
vn 0.0996 0.9651 0.2422
vn 0.9922 0.1216 -0.0285
vn 0.9042 -0.3756 -0.2035
vn 0.5600 0.8096 0.1760
vn 0.9094 0.0150 0.4157
vn 0.8337 0.0795 0.5465
vn 0.4222 -0.7702 0.4781
vn 0.2348 0.5031 0.8317
vn 0.0971 0.5990 0.7948
vn 0.1785 0.9740 0.1394
vn 0.0743 0.5892 0.8046
vn -0.0978 -0.1030 0.9899
vn -0.1474 0.9798 0.1351
vn -0.0537 0.9985 0.0095
vn -0.5750 -0.2829 0.7677
vn -0.5316 0.7703 0.3524
vn -0.9246 -0.1186 0.3621
vn -0.5973 0.7499 0.2846
vn -0.9204 -0.3692 0.1284
vn -0.6541 0.7554 0.0394
vn -0.0942 0.9944 -0.0476
vn -0.9086 -0.1741 -0.3798
vn -0.4804 0.8384 -0.2575
vn -0.8553 -0.0331 -0.5172
vn -0.3626 0.8163 -0.4497
vn -0.2628 0.8423 -0.4705
vn -0.0055 -0.4513 -0.8924
vn -0.0522 0.9982 0.0295
vn 0.1125 0.9906 -0.0773
vn 0.3391 -0.7190 -0.6067
vn 0.4029 0.6261 -0.6676
vn 0.7147 -0.1560 -0.6818
vn 0.7783 0.5589 -0.2860
vn 0.6807 -0.7325 -0.0073
vn 0.5516 0.8180 0.1629
vn 0.8348 0.4973 0.2363
vn 0.2880 0.9515 -0.1082
vn 0.9106 -0.0317 0.4122
vn 0.7549 0.6410 0.1389
vn 0.4596 0.7364 0.4964
vn 0.4986 0.6506 0.5728
vn -0.0491 0.9987 0.0123
vn -0.0649 0.9533 0.2950
vn 0.1485 -0.5757 0.8040
vn 0.1290 -0.5835 0.8018
vn -0.3557 0.8738 0.3316
vn -0.8015 0.0497 0.5959
vn -0.9037 -0.1641 0.3954
vn -0.0880 0.9960 0.0156
vn -0.1579 0.9838 0.0850
vn -0.5396 0.8306 0.1378
vn -0.9770 0.2132 -0.0075
vn -0.4505 0.8774 -0.1653
vn -0.8877 0.0339 -0.4593
vn -0.4284 0.8603 -0.2764
vn -0.6305 0.3425 -0.6965
vn -0.1962 0.9804 0.0185
vn -0.2221 -0.5168 -0.8268
usemtl None
s off
f 6/1/1 5/2/1 2/3/1
f 3/4/2 5/2/2 8/5/2
f 6/1/3 7/6/3 5/2/3
f 5/2/4 7/6/4 9/7/4
f 28/8/5 11/9/5 6/1/5
f 8/5/6 9/7/6 13/10/6
f 11/9/7 10/11/7 7/6/7
f 9/7/8 10/11/8 12/12/8
f 11/9/9 15/13/9 10/11/9
f 9/7/10 12/12/10 13/10/10
f 28/8/11 14/14/11 11/9/11
f 15/13/12 16/15/12 12/12/12
f 13/10/13 16/15/13 17/16/13
f 15/13/14 14/14/14 19/17/14
f 16/15/15 19/17/15 20/18/15
f 20/18/16 19/17/16 21/19/16
f 21/19/17 24/20/17 20/18/17
f 21/19/18 22/21/18 23/22/18
f 22/21/19 25/23/19 23/22/19
f 31/24/20 25/23/20 22/21/20
f 25/23/21 27/25/21 23/22/21
f 23/22/22 27/25/22 26/26/22
f 31/24/23 29/27/23 25/23/23
f 31/24/24 28/8/24 1/28/24
f 26/26/25 27/25/25 30/29/25
f 29/27/26 32/30/26 27/25/26
f 30/29/27 32/30/27 33/31/27
f 29/27/28 34/32/28 32/30/28
f 33/31/29 34/32/29 36/33/29
f 35/34/30 37/35/30 34/32/30
f 35/34/31 1/28/31 40/36/31
f 36/33/32 37/35/32 39/37/32
f 37/35/33 40/36/33 38/38/33
f 39/37/34 38/38/34 41/39/34
f 38/38/35 4/40/35 2/3/35
f 2/3/36 4/40/36 6/1/36
f 3/4/37 2/3/37 5/2/37
f 1/28/38 28/8/38 4/40/38
f 4/40/39 28/8/39 6/1/39
f 8/5/40 5/2/40 9/7/40
f 6/1/41 11/9/41 7/6/41
f 9/7/42 7/6/42 10/11/42
f 10/11/43 15/13/43 12/12/43
f 13/10/44 12/12/44 16/15/44
f 11/9/45 14/14/45 15/13/45
f 16/15/46 15/13/46 19/17/46
f 14/14/47 28/8/47 18/41/47
f 16/15/48 20/18/48 17/16/48
f 19/17/49 14/14/49 18/41/49
f 19/17/50 18/41/50 22/21/50
f 21/19/51 19/17/51 22/21/51
f 18/41/52 28/8/52 31/24/52
f 22/21/53 18/41/53 31/24/53
f 21/19/54 23/22/54 24/20/54
f 24/20/55 23/22/55 26/26/55
f 25/23/56 29/27/56 27/25/56
f 30/29/57 27/25/57 32/30/57
f 33/31/58 32/30/58 34/32/58
f 31/24/59 1/28/59 35/34/59
f 31/24/60 35/34/60 29/27/60
f 29/27/61 35/34/61 34/32/61
f 34/32/62 37/35/62 36/33/62
f 37/35/63 35/34/63 40/36/63
f 39/37/64 37/35/64 38/38/64
f 38/38/65 40/36/65 4/40/65
f 41/39/66 38/38/66 2/3/66
f 40/36/67 1/28/67 4/40/67
f 41/39/68 2/3/68 3/4/68
