[gd_scene load_steps=2 format=2]

[ext_resource path="res://Scene Objects/Birdnonote.tscn" type="PackedScene" id=1]

[node name="Spatial" type="Spatial"]

[node name="Bird" parent="." index="0" instance=ExtResource( 1 )]


