[gd_scene load_steps=4 format=2]

[ext_resource path="res://Materials/BasicWater.tres" type="Material" id=1]

[sub_resource type="PlaneMesh" id=1]

custom_aabb = AABB( 0, 0, 0, 0, 0, 0 )
size = Vector2( 2, 2 )
subdivide_width = 0
subdivide_depth = 0

[sub_resource type="Animation" id=2]

resource_name = "Movewater"
length = 5.0
loop = true
step = 0.1
tracks/0/type = "value"
tracks/0/path = NodePath(".:material/0:uv1_offset")
tracks/0/interp = 1
tracks/0/loop_wrap = true
tracks/0/imported = false
tracks/0/enabled = true
tracks/0/keys = {
"times": PoolRealArray( 0, 5 ),
"transitions": PoolRealArray( 1, 1 ),
"update": 0,
"values": [ Vector3( 10, 0, 0 ), Vector3( 1, 0, 0 ) ]
}

[node name="MeshInstance4" type="MeshInstance"]

transform = Transform( 8.25955, 0, 0, 0, 8.25955, 0, 0, 0, 12.3472, -34.1779, -5.93584, -1.08151 )
layers = 1
material_override = null
cast_shadow = 1
extra_cull_margin = 0.0
use_in_baked_light = false
lod_min_distance = 0.0
lod_min_hysteresis = 0.0
lod_max_distance = 0.0
lod_max_hysteresis = 0.0
mesh = SubResource( 1 )
skeleton = NodePath("..")
material/0 = ExtResource( 1 )
_sections_unfolded = [ "material" ]

[node name="AnimationPlayer" type="AnimationPlayer" parent="." index="0"]

root_node = NodePath("..")
autoplay = "Movewater"
playback_process_mode = 1
playback_default_blend_time = 0.0
playback_speed = 0.01
anims/Movewater = SubResource( 2 )
blend_times = [  ]
_sections_unfolded = [ "Pause", "Playback Options" ]


