[gd_scene load_steps=10 format=2]

[ext_resource path="res://Scripts/Player.gd" type="Script" id=1]
[ext_resource path="res://Animations/Flicker.tres" type="Animation" id=2]
[ext_resource path="res://Scene Objects/Torch.tscn" type="PackedScene" id=3]
[ext_resource path="res://Scene Objects/PlayerArms.tscn" type="PackedScene" id=4]

[sub_resource type="CapsuleShape" id=1]

radius = 1.0
height = 3.80661

[sub_resource type="BoxShape" id=2]

extents = Vector3( 1, 1, 1 )

[sub_resource type="Animation" id=3]

resource_name = "Walk"
length = 1.75
loop = true
step = 0.1
tracks/0/type = "transform"
tracks/0/path = NodePath("metarig/Skeleton:ArmIK.L")
tracks/0/interp = 1
tracks/0/loop_wrap = true
tracks/0/imported = true
tracks/0/enabled = true
tracks/0/keys = PoolRealArray( 0.0416666, 1, 0.657732, 0.878602, 0.510438, -0.0220368, -0.672471, -0.0200388, 0.739524, 1, 1, 1, 0.0833333, 1, 0.656129, 0.879386, 0.516411, -0.0220368, -0.672471, -0.0200388, 0.739524, 1, 1, 1, 0.125, 1, 0.653592, 0.880627, 0.525864, -0.0220368, -0.672471, -0.0200388, 0.739524, 1, 1, 1, 0.208333, 1, 0.646153, 0.884264, 0.553577, -0.0220368, -0.672471, -0.0200388, 0.739524, 1, 1, 1, 0.833333, 1, 0.574012, 0.919538, 0.822343, -0.0220368, -0.672471, -0.0200388, 0.739524, 1, 1, 1, 0.875, 1, 0.573453, 0.919811, 0.824425, -0.0220368, -0.672471, -0.0200388, 0.739524, 1, 1, 1, 0.916667, 1, 0.574012, 0.919538, 0.822343, -0.0220368, -0.672471, -0.0200388, 0.739524, 1, 1, 1, 0.958333, 1, 0.575615, 0.918754, 0.816371, -0.0220368, -0.672471, -0.0200388, 0.739524, 1, 1, 1, 1, 1, 0.578153, 0.917513, 0.806917, -0.0220368, -0.672471, -0.0200388, 0.739524, 1, 1, 1, 1.08333, 1, 0.585591, 0.913876, 0.779204, -0.0220368, -0.672471, -0.0200388, 0.739524, 1, 1, 1, 1.70833, 1, 0.657732, 0.878602, 0.510438, -0.0220368, -0.672471, -0.0200388, 0.739524, 1, 1, 1, 1.75, 1, 0.658291, 0.878329, 0.508356, -0.0220368, -0.672471, -0.0200388, 0.739524, 1, 1, 1 )
tracks/1/type = "transform"
tracks/1/path = NodePath("metarig/Skeleton:ArmIK.R")
tracks/1/interp = 1
tracks/1/loop_wrap = true
tracks/1/imported = true
tracks/1/enabled = true
tracks/1/keys = PoolRealArray( 0.0416666, 1, -0.746837, 1.07224, 0.664503, -0.0220368, 0.672471, 0.0200388, 0.739524, 1, 1, 1, 0.0833333, 1, -0.749219, 1.06961, 0.659193, -0.0220368, 0.672471, 0.0200388, 0.739524, 1, 1, 1, 0.125, 1, -0.752989, 1.06546, 0.650789, -0.0220368, 0.672471, 0.0200388, 0.739524, 1, 1, 1, 0.208333, 1, -0.764041, 1.05329, 0.626152, -0.0220368, 0.672471, 0.0200388, 0.739524, 1, 1, 1, 0.833333, 1, -0.871226, 0.935216, 0.38722, -0.0220368, 0.672471, 0.0200388, 0.739524, 1, 1, 1, 0.875, 1, -0.872056, 0.934302, 0.385369, -0.0220368, 0.672471, 0.0200388, 0.739524, 1, 1, 1, 0.916667, 1, -0.871226, 0.935216, 0.38722, -0.0220368, 0.672471, 0.0200388, 0.739524, 1, 1, 1, 0.958333, 1, -0.868844, 0.93784, 0.392529, -0.0220368, 0.672471, 0.0200388, 0.739524, 1, 1, 1, 1, 1, -0.865074, 0.941993, 0.400934, -0.0220368, 0.672471, 0.0200388, 0.739524, 1, 1, 1, 1.08333, 1, -0.854022, 0.954167, 0.42557, -0.0220368, 0.672471, 0.0200388, 0.739524, 1, 1, 1, 1.70833, 1, -0.746837, 1.07224, 0.664503, -0.0220368, 0.672471, 0.0200388, 0.739524, 1, 1, 1, 1.75, 1, -0.746007, 1.07315, 0.666354, -0.0220368, 0.672471, 0.0200388, 0.739524, 1, 1, 1 )
tracks/2/type = "transform"
tracks/2/path = NodePath("metarig/Skeleton:BowlJoint.R")
tracks/2/interp = 1
tracks/2/loop_wrap = true
tracks/2/imported = true
tracks/2/enabled = true
tracks/2/keys = PoolRealArray( 0.0416666, 1, 1.52269e-07, -8.29255e-07, -9.98324e-08, 0.246264, 0.0467649, -0.0552108, 0.966498, 1, 1, 1, 0.0833333, 1, 1.50007e-07, -8.84321e-07, -1.93471e-07, 0.247551, 0.0470441, -0.0555529, 0.966136, 1, 1, 1, 0.125, 1, 1.98905e-07, -7.42483e-07, -9.38193e-08, 0.249529, 0.0474731, -0.0560788, 0.965576, 1, 1, 1, 0.5, 1, 1.87395e-07, -8.2815e-07, -1.0009e-07, 0.272649, 0.0525026, -0.0622529, 0.958661, 1, 1, 1, 0.541667, 1, 1.45616e-07, -1.0066e-06, -2.52999e-07, 0.273748, 0.0527422, -0.0625473, 0.958315, 1, 1, 1, 0.583333, 1, 7.76252e-08, -9.23938e-07, -1.58845e-07, 0.274422, 0.0528892, -0.0627281, 0.958102, 1, 1, 1, 0.625, 1, 1.74954e-07, -8.54213e-07, -7.65583e-08, 0.274723, 0.0529548, -0.0628087, 0.958007, 1, 1, 1, 0.666667, 1, 3.23909e-07, -7.39842e-07, -1.77805e-07, 0.274723, 0.0529548, -0.0628088, 0.958007, 1, 1, 1, 0.708333, 1, 2.24651e-07, -7.89639e-07, -1.34458e-07, 0.274513, 0.052909, -0.0627524, 0.958074, 1, 1, 1, 0.75, 1, 1.82339e-07, -7.64008e-07, -7.45193e-08, 0.274193, 0.0528391, -0.0626665, 0.958175, 1, 1, 1, 0.791667, 1, 1.50207e-07, -8.26986e-07, -1.01948e-07, 0.273863, 0.0527672, -0.0625781, 0.958279, 1, 1, 1, 0.833333, 1, 2.49465e-07, -7.77189e-07, -1.45295e-07, 0.273615, 0.0527132, -0.0625117, 0.958357, 1, 1, 1, 0.875, 1, 1.75021e-07, -8.14537e-07, -1.12785e-07, 0.273522, 0.0526929, -0.0624867, 0.958387, 1, 1, 1, 0.916667, 1, 2.49465e-07, -7.77189e-07, -1.45295e-07, 0.273615, 0.0527132, -0.0625117, 0.958357, 1, 1, 1, 0.958333, 1, 1.75021e-07, -8.14537e-07, -1.12785e-07, 0.273863, 0.0527672, -0.062578, 0.958279, 1, 1, 1, 1, 1, 1.9152e-07, -8.32688e-07, -9.58583e-08, 0.274193, 0.0528391, -0.0626665, 0.958175, 1, 1, 1, 1.04167, 1, 5.09481e-08, -8.76782e-07, -5.86014e-08, 0.274513, 0.052909, -0.0627524, 0.958074, 1, 1, 1, 1.08333, 1, 1.24461e-07, -7.7983e-07, -6.13092e-08, 0.274723, 0.0529548, -0.0628088, 0.958007, 1, 1, 1, 1.125, 1, 1.90588e-07, -7.73083e-07, -6.6056e-08, 0.274723, 0.0529547, -0.0628087, 0.958007, 1, 1, 1, 1.16667, 1, 2.09948e-07, -8.70768e-07, -2.04565e-07, 0.274422, 0.0528892, -0.0627282, 0.958102, 1, 1, 1, 1.20833, 1, 6.10599e-08, -9.45462e-07, -1.39545e-07, 0.273748, 0.0527422, -0.0625474, 0.958315, 1, 1, 1, 1.25, 1, 1.8327e-07, -8.23612e-07, -1.04322e-07, 0.272649, 0.0525027, -0.0622529, 0.958661, 1, 1, 1, 1.29167, 1, 1.87462e-07, -7.88474e-07, -1.36317e-07, 0.271103, 0.0521656, -0.0618385, 0.959144, 1, 1, 1, 1.375, 1, 2.65963e-07, -7.95341e-07, -1.28368e-07, 0.266726, 0.0512119, -0.0606666, 0.960497, 1, 1, 1, 1.66667, 1, 1.50007e-07, -8.84321e-07, -1.93471e-07, 0.247551, 0.0470441, -0.0555529, 0.966136, 1, 1, 1, 1.70833, 1, 1.81009e-07, -8.78679e-07, -1.9796e-07, 0.246263, 0.0467649, -0.0552108, 0.966498, 1, 1, 1, 1.75, 1, 1.77084e-07, -8.16806e-07, -1.10669e-07, 0.245808, 0.0466661, -0.0550897, 0.966626, 1, 1, 1 )
tracks/3/type = "transform"
tracks/3/path = NodePath("metarig/Skeleton:Bowljoint.L")
tracks/3/interp = 1
tracks/3/loop_wrap = true
tracks/3/imported = true
tracks/3/enabled = true
tracks/3/keys = PoolRealArray( 0.0416666, 1, -1.18613e-07, 2.40999e-08, 3.63718e-07, 0.172277, -0.0512024, 0.0608559, 0.981833, 1, 1, 1, 0.0833333, 1, -1.26929e-07, 5.47004e-08, 3.35955e-07, 0.170998, -0.0507722, 0.0603439, 0.98211, 1, 1, 1, 0.125, 1, -2.76705e-08, 4.90424e-09, 3.79301e-07, 0.168921, -0.0500739, 0.0595124, 0.982556, 1, 1, 1, 0.166667, 1, -6.07343e-08, 8.27752e-09, 3.76928e-07, 0.166068, -0.0491158, 0.0583712, 0.983159, 1, 1, 1, 0.25, 1, -2.12167e-08, -8.53009e-08, 3.17658e-07, 0.158094, -0.0464414, 0.055187, 0.984786, 1, 1, 1, 0.833333, 1, -1.32346e-08, 2.07868e-08, 3.6449e-07, 0.0667889, -0.018057, 0.0213943, 0.997374, 1, 1, 1, 0.875, 1, 3.04073e-08, -6.82537e-08, 3.00988e-07, 0.0657822, -0.0177576, 0.0210379, 0.997454, 1, 1, 1, 0.916667, 1, -6.69884e-08, 4.1147e-08, 3.47049e-07, 0.0667888, -0.018057, 0.0213943, 0.997374, 1, 1, 1, 0.958333, 1, -5.15538e-08, 7.69579e-08, 3.98267e-07, 0.0696502, -0.0189089, 0.0224081, 0.997141, 1, 1, 1, 1, 1, 4.69734e-08, -8.97788e-08, 3.20289e-07, 0.0741, -0.0202365, 0.0239878, 0.996757, 1, 1, 1, 1.70833, 1, 2.8345e-08, -7.05227e-08, 3.03104e-07, 0.172277, -0.0512024, 0.0608559, 0.981833, 1, 1, 1, 1.75, 1, -6.89834e-08, -7.9817e-10, 3.85391e-07, 0.172716, -0.0513502, 0.061032, 0.981737, 1, 1, 1 )
tracks/4/type = "transform"
tracks/4/path = NodePath("metarig/Skeleton:Forearm.L")
tracks/4/interp = 1
tracks/4/loop_wrap = true
tracks/4/imported = true
tracks/4/enabled = true
tracks/4/keys = PoolRealArray( 0.0416666, 1, -4.24531e-07, 6.68838e-07, -1.0722e-07, 0.0567694, -0.368617, 0.258175, 0.891204, 1, 1, 1, 0.0833333, 1, -4.5834e-07, 6.57143e-07, -2.08713e-07, 0.0563389, -0.367155, 0.258268, 0.891808, 1, 1, 1, 0.125, 1, -2.47842e-07, 8.02547e-07, -1.78506e-07, 0.0556402, -0.364778, 0.258417, 0.892783, 1, 1, 1, 0.166667, 1, -4.21587e-07, 7.58563e-07, -2.20183e-07, 0.0546813, -0.361509, 0.25862, 0.894112, 1, 1, 1, 0.25, 1, -4.80027e-07, 7.18939e-07, -1.96396e-07, 0.0520008, -0.352352, 0.259175, 0.89776, 1, 1, 1, 0.833333, 1, -3.3081e-07, 7.64088e-07, -4.12922e-08, 0.0244191, -0.247358, 0.264292, 0.931862, 1, 1, 1, 0.875, 1, -3.55135e-07, 8.27165e-07, -1.30391e-07, 0.0241344, -0.246191, 0.264333, 0.932167, 1, 1, 1, 0.916667, 1, -3.66091e-07, 7.08462e-07, -1.31008e-07, 0.0244191, -0.247358, 0.264292, 0.931862, 1, 1, 1, 0.958333, 1, -3.74308e-07, 6.19435e-07, -1.3147e-07, 0.0252295, -0.250673, 0.264171, 0.930989, 1, 1, 1, 1, 1, -3.44199e-07, 7.06715e-07, -2.56443e-07, 0.0264937, -0.255824, 0.263977, 0.929607, 1, 1, 1, 1.70833, 1, -5.24976e-07, 7.67645e-07, -5.87196e-08, 0.0567694, -0.368617, 0.258175, 0.891204, 1, 1, 1, 1.75, 1, -4.46218e-07, 7.30634e-07, -9.49021e-08, 0.0569174, -0.369119, 0.258143, 0.890996, 1, 1, 1 )
tracks/5/type = "transform"
tracks/5/path = NodePath("metarig/Skeleton:Forearm.R")
tracks/5/interp = 1
tracks/5/loop_wrap = true
tracks/5/imported = true
tracks/5/enabled = true
tracks/5/keys = PoolRealArray( 0.0416666, 1, 2.7511e-07, 1.37381e-06, -3.03652e-07, 0.264321, 0.208578, -0.0010458, 0.94161, 1, 1, 1, 0.0833333, 1, 2.28995e-07, 1.27989e-06, -3.28134e-07, 0.265269, 0.209518, -0.000988352, 0.941134, 1, 1, 1, 0.125, 1, 1.44964e-07, 1.24218e-06, -2.21088e-07, 0.266727, 0.210962, -0.000900081, 0.9404, 1, 1, 1, 0.5, 1, 1.69391e-07, 1.2743e-06, -2.08925e-07, 0.28376, 0.22781, 0.000130599, 0.931441, 1, 1, 1, 0.541667, 1, 1.7213e-07, 1.24463e-06, -2.09079e-07, 0.284568, 0.228608, 0.00017857, 0.930999, 1, 1, 1, 0.583333, 1, 1.63913e-07, 1.33365e-06, -2.08616e-07, 0.285064, 0.229098, 0.000208057, 0.930727, 1, 1, 1, 0.625, 1, 1.21907e-07, 1.19522e-06, -2.33329e-07, 0.285284, 0.229317, 0.000221158, 0.930606, 1, 1, 1, 0.666667, 1, 1.69391e-07, 1.2743e-06, -2.08925e-07, 0.285285, 0.229317, 0.000221174, 0.930605, 1, 1, 1, 0.708333, 1, 1.1232e-07, 1.29909e-06, -2.32789e-07, 0.28513, 0.229164, 0.000212, 0.93069, 1, 1, 1, 0.75, 1, 2.80792e-07, 1.25441e-06, -1.61041e-07, 0.284895, 0.228931, 0.000197999, 0.93082, 1, 1, 1, 0.791667, 1, 2.31735e-07, 1.25021e-06, -3.28288e-07, 0.284652, 0.228692, 0.000183585, 0.930953, 1, 1, 1, 0.833333, 1, 1.66652e-07, 1.30398e-06, -2.0877e-07, 0.28447, 0.228512, 0.00017275, 0.931053, 1, 1, 1, 0.875, 1, 1.69391e-07, 1.2743e-06, -2.08925e-07, 0.284402, 0.228444, 0.000168702, 0.93109, 1, 1, 1, 0.916667, 1, 1.66652e-07, 1.30398e-06, -2.0877e-07, 0.28447, 0.228512, 0.00017275, 0.931053, 1, 1, 1, 0.958333, 1, 8.25182e-08, 1.29536e-06, -1.43382e-07, 0.284652, 0.228692, 0.000183577, 0.930953, 1, 1, 1, 1, 1, 2.3057e-07, 1.205e-06, -1.85291e-07, 0.284895, 0.228931, 0.000197995, 0.93082, 1, 1, 1, 1.04167, 1, 1.17799e-07, 1.23974e-06, -2.33098e-07, 0.28513, 0.229164, 0.000211996, 0.93069, 1, 1, 1, 1.08333, 1, 2.7511e-07, 1.37381e-06, -3.03652e-07, 0.285284, 0.229317, 0.000221178, 0.930606, 1, 1, 1, 1.125, 1, 1.74869e-07, 1.21495e-06, -2.09233e-07, 0.285284, 0.229317, 0.000221182, 0.930606, 1, 1, 1, 1.16667, 1, 2.3057e-07, 1.205e-06, -1.85291e-07, 0.285064, 0.229098, 0.000208005, 0.930727, 1, 1, 1, 1.20833, 1, 1.69391e-07, 1.2743e-06, -2.08925e-07, 0.284568, 0.228608, 0.000178586, 0.930999, 1, 1, 1, 1.25, 1, 2.292e-07, 1.21984e-06, -1.85214e-07, 0.28376, 0.22781, 0.000130579, 0.931441, 1, 1, 1, 1.29167, 1, 1.16429e-07, 1.25457e-06, -2.33021e-07, 0.282624, 0.226686, 6.29581e-05, 0.932061, 1, 1, 1, 1.375, 1, 1.1232e-07, 1.29909e-06, -2.32789e-07, 0.279399, 0.2235, -0.000132368, 0.933801, 1, 1, 1, 1.66667, 1, 2.28995e-07, 1.27989e-06, -3.28134e-07, 0.265269, 0.209518, -0.000988352, 0.941134, 1, 1, 1, 1.70833, 1, 2.72371e-07, 1.40348e-06, -3.03498e-07, 0.264321, 0.208578, -0.00104583, 0.94161, 1, 1, 1, 1.75, 1, 1.17799e-07, 1.23974e-06, -2.33098e-07, 0.263985, 0.208246, -0.00106618, 0.941777, 1, 1, 1 )
tracks/6/type = "transform"
tracks/6/path = NodePath("metarig/Skeleton:L.Wrist")
tracks/6/interp = 1
tracks/6/loop_wrap = true
tracks/6/imported = true
tracks/6/enabled = true
tracks/6/keys = PoolRealArray( 0.0416666, 1, 3.42644e-07, -7.49751e-07, -7.42985e-07, -1.74157e-07, -6.92672e-09, 0.941176, 0.337917, 1, 1, 1, 0.0833333, 1, 3.42685e-07, -7.79535e-07, -7.44022e-07, -1.86788e-07, -2.68259e-08, 0.937366, 0.348346, 1, 1, 1, 0.125, 1, 3.72488e-07, -7.8326e-07, -6.24812e-07, -1.44114e-07, -2.10167e-08, 0.930585, 0.366077, 1, 1, 1, 0.166667, 1, 4.30942e-07, -8.42328e-07, -6.38937e-07, -1.7009e-07, -1.92363e-08, 0.919881, 0.392197, 1, 1, 1, 0.208333, 1, 2.84189e-07, -6.90683e-07, -7.2886e-07, -1.93791e-07, -2.78318e-08, 0.90349, 0.42861, 1, 1, 1, 0.25, 1, 3.72363e-07, -6.93908e-07, -6.21703e-07, -1.82399e-07, -3.7116e-08, 0.878228, 0.478243, 1, 1, 1, 0.291667, 1, 3.14033e-07, -7.24192e-07, -6.10687e-07, -1.26402e-07, -4.78277e-08, 0.838288, 0.545228, 1, 1, 1, 0.333333, 1, 3.4281e-07, -8.68888e-07, -7.47131e-07, -1.24765e-07, -8.21979e-08, 0.772928, 0.634494, 1, 1, 1, 0.375, 1, 4.30859e-07, -7.8276e-07, -6.36864e-07, -1.36818e-07, -6.9653e-08, 0.66283, 0.74877, 1, 1, 1, 0.416667, 1, 3.72612e-07, -8.72613e-07, -6.27922e-07, -1.07147e-07, -1.03964e-07, 0.478851, 0.877896, 1, 1, 1, 0.458333, 1, 3.14241e-07, -8.73114e-07, -6.1587e-07, -6.18032e-08, -1.59737e-07, 0.201464, 0.979496, 1, 1, 1, 0.5, 1, 4.31108e-07, -9.61466e-07, -6.43083e-07, -2.53486e-08, -1.6899e-07, -0.126255, 0.991998, 1, 1, 1, 0.541667, 1, 3.42727e-07, -8.09319e-07, -7.45058e-07, 1.01998e-09, -1.59116e-07, -0.407775, 0.913082, 1, 1, 1, 0.583333, 1, 3.86114e-07, -7.45525e-07, -8.44444e-07, 7.3182e-08, -1.90505e-07, -0.597666, 0.801745, 1, 1, 1, 0.625, 1, 3.42644e-07, -7.49751e-07, -7.42985e-07, 1.18224e-07, -2.00583e-07, -0.713057, 0.701106, 1, 1, 1, 0.666667, 1, 2.26026e-07, -8.40105e-07, -7.21991e-07, 1.10567e-07, -2.1964e-07, -0.781973, 0.623312, 1, 1, 1, 0.708333, 1, 3.4281e-07, -8.68888e-07, -7.47131e-07, 1.46075e-07, -1.60847e-07, -0.823421, 0.567431, 1, 1, 1, 0.75, 1, 3.27743e-07, -7.46026e-07, -8.32392e-07, 1.14219e-07, -1.33549e-07, -0.847999, 0.529999, 1, 1, 1, 0.791667, 1, 4.31066e-07, -9.31681e-07, -6.42047e-07, 2.10714e-07, -1.50248e-07, -0.861191, 0.508281, 1, 1, 1, 0.833333, 1, 4.30942e-07, -8.42328e-07, -6.38937e-07, 1.28257e-07, -1.44986e-07, -0.865426, 0.501036, 1, 1, 1, 0.875, 1, 3.42768e-07, -8.39104e-07, -7.46095e-07, 1.89597e-07, -1.30116e-07, -0.865427, 0.501036, 1, 1, 1, 0.916667, 1, 4.0114e-07, -8.38603e-07, -7.58146e-07, 1.08248e-07, -1.76133e-07, -0.861586, 0.507612, 1, 1, 1, 0.958333, 1, 4.30859e-07, -7.8276e-07, -6.36864e-07, 1.96055e-07, -1.7486e-07, -0.849689, 0.527285, 1, 1, 1, 1, 1, 4.30983e-07, -8.72112e-07, -6.39974e-07, 1.04581e-07, -1.09561e-07, -0.827794, 0.561032, 1, 1, 1, 1.04167, 1, 4.01015e-07, -7.4925e-07, -7.55037e-07, 1.43261e-07, -1.22687e-07, -0.791568, 0.611081, 1, 1, 1, 1.08333, 1, 2.26026e-07, -8.40105e-07, -7.21991e-07, 9.0334e-08, -2.18991e-07, -0.732799, 0.680445, 1, 1, 1, 1.125, 1, 3.72446e-07, -7.53476e-07, -6.23776e-07, 7.12737e-08, -1.66708e-07, -0.636903, 0.770944, 1, 1, 1, 1.16667, 1, 4.01015e-07, -7.4925e-07, -7.55037e-07, 6.48042e-08, -2.12473e-07, -0.481126, 0.876652, 1, 1, 1, 1.20833, 1, 4.30859e-07, -7.8276e-07, -6.36864e-07, -1.72834e-08, -1.61312e-07, -0.243354, 0.969938, 1, 1, 1, 1.25, 1, 4.31108e-07, -9.61466e-07, -6.43083e-07, -5.41196e-08, -1.60493e-07, 0.061636, 0.998099, 1, 1, 1, 1.29167, 1, 3.14241e-07, -8.73114e-07, -6.1587e-07, -5.68503e-08, -1.31653e-07, 0.357859, 0.933776, 1, 1, 1, 1.33333, 1, 3.72612e-07, -8.72613e-07, -6.27922e-07, -1.65436e-07, -8.21473e-08, 0.577656, 0.81628, 1, 1, 1, 1.375, 1, 4.30859e-07, -7.8276e-07, -6.36864e-07, -1.14933e-07, -5.3457e-08, 0.717192, 0.696876, 1, 1, 1, 1.41667, 1, 2.84438e-07, -8.69388e-07, -7.35079e-07, -1.23123e-07, -2.18193e-08, 0.801818, 0.597568, 1, 1, 1, 1.45833, 1, 3.42644e-07, -7.49751e-07, -7.42985e-07, -1.25209e-07, -1.43096e-08, 0.853758, 0.52067, 1, 1, 1, 1.5, 1, 4.31066e-07, -9.31681e-07, -6.42047e-07, -1.84873e-07, -6.3025e-08, 0.886622, 0.462495, 1, 1, 1, 1.54167, 1, 3.72405e-07, -7.23692e-07, -6.22739e-07, -1.43589e-07, -4.10253e-08, 0.908046, 0.41887, 1, 1, 1, 1.58333, 1, 3.8743e-07, -8.15839e-07, -5.36442e-07, -1.9792e-07, -2.32253e-08, 0.92229, 0.3865, 1, 1, 1, 1.625, 1, 3.72488e-07, -7.8326e-07, -6.24812e-07, -1.55926e-07, -1.09948e-08, 0.931764, 0.363064, 1, 1, 1, 1.66667, 1, 3.14033e-07, -7.24192e-07, -6.10687e-07, -1.98609e-07, 1.98609e-09, 0.937847, 0.347049, 1, 1, 1, 1.70833, 1, 4.59386e-07, -7.48749e-07, -7.67088e-07, -1.58305e-07, -9.89409e-09, 0.941292, 0.337593, 1, 1, 1, 1.75, 1, 4.30859e-07, -7.8276e-07, -6.36864e-07, -1.58115e-07, -2.37172e-08, 0.942428, 0.33441, 1, 1, 1 )
tracks/7/type = "transform"
tracks/7/path = NodePath("metarig/Skeleton:upper_arm.L")
tracks/7/interp = 1
tracks/7/loop_wrap = true
tracks/7/imported = true
tracks/7/enabled = true
tracks/7/keys = PoolRealArray( 0.0416666, 1, 3.27826e-07, -1.67638e-07, -4.24683e-07, -0.404603, 0.140866, -0.165154, 0.888357, 1, 1, 1, 0.0833333, 1, 3.27826e-07, -1.67638e-07, -4.24683e-07, -0.400703, 0.140396, -0.166075, 0.890025, 1, 1, 1, 0.125, 1, 3.27826e-07, -1.67638e-07, -4.24683e-07, -0.394499, 0.139639, -0.167526, 0.89264, 1, 1, 1, 0.208333, 1, 3.27826e-07, -1.67638e-07, -4.24683e-07, -0.376099, 0.137323, -0.171737, 0.90011, 1, 0.999999, 1, 0.708333, 1, 3.27826e-07, -1.67638e-07, -4.24683e-07, -0.20283, 0.111193, -0.206466, 0.95072, 1, 0.999999, 1, 0.75, 1, 3.27826e-07, -1.67638e-07, -4.24683e-07, -0.193061, 0.109519, -0.208219, 0.952564, 1, 0.999999, 1, 0.791667, 1, 3.27826e-07, -1.67638e-07, -4.24683e-07, -0.185624, 0.108232, -0.209542, 0.953898, 1, 0.999999, 1, 0.833333, 1, 3.27826e-07, -1.67638e-07, -4.24683e-07, -0.180895, 0.107407, -0.210377, 0.954716, 1, 0.999999, 1, 0.875, 1, 3.27826e-07, -1.67638e-07, -4.24683e-07, -0.179241, 0.107118, -0.210669, 0.954996, 1, 0.999999, 1, 0.916667, 1, 3.27826e-07, -1.67638e-07, -4.24683e-07, -0.180895, 0.107407, -0.210377, 0.954716, 1, 0.999999, 1, 0.958333, 1, 3.27826e-07, -1.67638e-07, -4.24683e-07, -0.185624, 0.108232, -0.209542, 0.953898, 1, 0.999999, 1, 1, 1, 3.27826e-07, -1.67638e-07, -4.24683e-07, -0.193061, 0.109519, -0.208219, 0.952564, 1, 0.999999, 1, 1.08333, 1, 3.27826e-07, -1.67638e-07, -4.24683e-07, -0.214552, 0.113176, -0.204337, 0.94837, 1, 0.999999, 1, 1.58333, 1, 3.27826e-07, -1.67638e-07, -4.24683e-07, -0.386222, 0.13861, -0.169437, 0.896053, 1, 1, 1, 1.625, 1, 3.27826e-07, -1.67638e-07, -4.24683e-07, -0.394499, 0.139639, -0.167526, 0.89264, 1, 1, 1, 1.66667, 1, 3.27826e-07, -1.67638e-07, -4.24683e-07, -0.400703, 0.140396, -0.166075, 0.890025, 1, 1, 1, 1.70833, 1, 3.27826e-07, -1.67638e-07, -4.24683e-07, -0.404603, 0.140866, -0.165154, 0.888357, 1, 1, 1, 1.75, 1, 3.27826e-07, -1.67638e-07, -4.24683e-07, -0.405959, 0.141029, -0.164832, 0.887772, 1, 0.999999, 1 )
tracks/8/type = "transform"
tracks/8/path = NodePath("metarig/Skeleton:upper_arm.R")
tracks/8/interp = 1
tracks/8/loop_wrap = true
tracks/8/imported = true
tracks/8/enabled = true
tracks/8/keys = PoolRealArray( 0.0416666, 1, -5.36442e-07, 2.6077e-07, 2.68221e-07, -0.323708, -0.0665816, 0.109261, 0.937466, 1, 1, 1, 0.0833333, 1, -5.36442e-07, 2.6077e-07, 2.68221e-07, -0.327989, -0.066425, 0.107964, 0.936138, 1, 1, 1, 0.125, 1, -5.36442e-07, 2.6077e-07, 2.68221e-07, -0.334726, -0.0661717, 0.105894, 0.934005, 1, 1, 1, 0.208333, 1, -5.36442e-07, 2.6077e-07, 2.68221e-07, -0.354203, -0.0653904, 0.0997052, 0.927536, 1, 1, 1, 0.5, 1, -5.36442e-07, 2.6077e-07, 2.68221e-07, -0.449027, -0.0603242, 0.0637604, 0.889197, 1, 1, 1, 0.666667, 1, -5.36442e-07, 2.6077e-07, 2.68221e-07, -0.493176, -0.0569977, 0.0415737, 0.867064, 1, 1, 1, 0.708333, 1, -5.36442e-07, 2.6077e-07, 2.68221e-07, -0.500956, -0.0563215, 0.037034, 0.862844, 1, 1, 1, 0.75, 1, -5.36442e-07, 2.6077e-07, 2.68221e-07, -0.507192, -0.0557562, 0.0332097, 0.859386, 1, 1, 1, 0.791667, 1, -5.36442e-07, 2.6077e-07, 2.68221e-07, -0.511789, -0.055325, 0.0302725, 0.856794, 1, 1, 1, 0.833333, 1, -5.36442e-07, 2.6077e-07, 2.68221e-07, -0.514643, -0.0550508, 0.0283933, 0.855164, 1, 1, 1, 0.875, 1, -5.36442e-07, 2.6077e-07, 2.68221e-07, -0.515629, -0.0549549, 0.0277339, 0.854598, 1, 1, 1, 0.916667, 1, -5.36442e-07, 2.6077e-07, 2.68221e-07, -0.514643, -0.0550508, 0.0283933, 0.855164, 1, 1, 1, 0.958333, 1, -5.36442e-07, 2.6077e-07, 2.68221e-07, -0.511789, -0.055325, 0.0302725, 0.856794, 1, 1, 1, 1, 1, -5.36442e-07, 2.6077e-07, 2.68221e-07, -0.507192, -0.0557561, 0.0332097, 0.859386, 1, 1, 1, 1.04167, 1, -5.36442e-07, 2.6077e-07, 2.68221e-07, -0.500956, -0.0563216, 0.0370339, 0.862844, 1, 1, 1, 1.16667, 1, -5.36442e-07, 2.6077e-07, 2.68221e-07, -0.473421, -0.0585846, 0.0521519, 0.877337, 1, 1, 1, 1.33333, 1, -5.36442e-07, 2.6077e-07, 2.68221e-07, -0.421574, -0.0620395, 0.0754109, 0.901521, 1, 1, 1, 1.625, 1, -5.36442e-07, 2.6077e-07, 2.68221e-07, -0.334726, -0.0661718, 0.105894, 0.934005, 1, 1, 1, 1.66667, 1, -5.36442e-07, 2.6077e-07, 2.68221e-07, -0.327989, -0.066425, 0.107964, 0.936138, 1, 1, 1, 1.70833, 1, -5.36442e-07, 2.6077e-07, 2.68221e-07, -0.323708, -0.0665815, 0.109261, 0.937466, 1, 1, 1, 1.75, 1, -5.36442e-07, 2.6077e-07, 2.68221e-07, -0.322212, -0.0666355, 0.109712, 0.937925, 1, 1, 1 )

[sub_resource type="Animation" id=4]

resource_name = "default"
length = 1.75
loop = false
step = 0.1
tracks/0/type = "transform"
tracks/0/path = NodePath("metarig/Skeleton:ArmIK.L")
tracks/0/interp = 1
tracks/0/loop_wrap = true
tracks/0/imported = true
tracks/0/enabled = true
tracks/0/keys = PoolRealArray( 0.0416666, 1, 0.657732, 0.878602, 0.510438, -0.0220368, -0.672471, -0.0200388, 0.739524, 1, 1, 1, 0.0833333, 1, 0.656129, 0.879386, 0.516411, -0.0220368, -0.672471, -0.0200388, 0.739524, 1, 1, 1, 0.125, 1, 0.653592, 0.880627, 0.525864, -0.0220368, -0.672471, -0.0200388, 0.739524, 1, 1, 1, 0.208333, 1, 0.646153, 0.884264, 0.553577, -0.0220368, -0.672471, -0.0200388, 0.739524, 1, 1, 1, 0.833333, 1, 0.574012, 0.919538, 0.822343, -0.0220368, -0.672471, -0.0200388, 0.739524, 1, 1, 1, 0.875, 1, 0.573453, 0.919811, 0.824425, -0.0220368, -0.672471, -0.0200388, 0.739524, 1, 1, 1, 0.916667, 1, 0.574012, 0.919538, 0.822343, -0.0220368, -0.672471, -0.0200388, 0.739524, 1, 1, 1, 0.958333, 1, 0.575615, 0.918754, 0.816371, -0.0220368, -0.672471, -0.0200388, 0.739524, 1, 1, 1, 1, 1, 0.578153, 0.917513, 0.806917, -0.0220368, -0.672471, -0.0200388, 0.739524, 1, 1, 1, 1.08333, 1, 0.585591, 0.913876, 0.779204, -0.0220368, -0.672471, -0.0200388, 0.739524, 1, 1, 1, 1.70833, 1, 0.657732, 0.878602, 0.510438, -0.0220368, -0.672471, -0.0200388, 0.739524, 1, 1, 1, 1.75, 1, 0.658291, 0.878329, 0.508356, -0.0220368, -0.672471, -0.0200388, 0.739524, 1, 1, 1 )
tracks/1/type = "transform"
tracks/1/path = NodePath("metarig/Skeleton:ArmIK.R")
tracks/1/interp = 1
tracks/1/loop_wrap = true
tracks/1/imported = true
tracks/1/enabled = true
tracks/1/keys = PoolRealArray( 0.0416666, 1, -0.746837, 1.07224, 0.664503, -0.0220368, 0.672471, 0.0200388, 0.739524, 1, 1, 1, 0.0833333, 1, -0.749219, 1.06961, 0.659193, -0.0220368, 0.672471, 0.0200388, 0.739524, 1, 1, 1, 0.125, 1, -0.752989, 1.06546, 0.650789, -0.0220368, 0.672471, 0.0200388, 0.739524, 1, 1, 1, 0.208333, 1, -0.764041, 1.05329, 0.626152, -0.0220368, 0.672471, 0.0200388, 0.739524, 1, 1, 1, 0.833333, 1, -0.871226, 0.935216, 0.38722, -0.0220368, 0.672471, 0.0200388, 0.739524, 1, 1, 1, 0.875, 1, -0.872056, 0.934302, 0.385369, -0.0220368, 0.672471, 0.0200388, 0.739524, 1, 1, 1, 0.916667, 1, -0.871226, 0.935216, 0.38722, -0.0220368, 0.672471, 0.0200388, 0.739524, 1, 1, 1, 0.958333, 1, -0.868844, 0.93784, 0.392529, -0.0220368, 0.672471, 0.0200388, 0.739524, 1, 1, 1, 1, 1, -0.865074, 0.941993, 0.400934, -0.0220368, 0.672471, 0.0200388, 0.739524, 1, 1, 1, 1.08333, 1, -0.854022, 0.954167, 0.42557, -0.0220368, 0.672471, 0.0200388, 0.739524, 1, 1, 1, 1.70833, 1, -0.746837, 1.07224, 0.664503, -0.0220368, 0.672471, 0.0200388, 0.739524, 1, 1, 1, 1.75, 1, -0.746007, 1.07315, 0.666354, -0.0220368, 0.672471, 0.0200388, 0.739524, 1, 1, 1 )
tracks/2/type = "transform"
tracks/2/path = NodePath("metarig/Skeleton:BowlJoint.R")
tracks/2/interp = 1
tracks/2/loop_wrap = true
tracks/2/imported = true
tracks/2/enabled = true
tracks/2/keys = PoolRealArray( 0.0416666, 1, 1.52269e-07, -8.29255e-07, -9.98324e-08, 0.246264, 0.0467649, -0.0552108, 0.966498, 1, 1, 1, 0.0833333, 1, 1.50007e-07, -8.84321e-07, -1.93471e-07, 0.247551, 0.0470441, -0.0555529, 0.966136, 1, 1, 1, 0.125, 1, 1.98905e-07, -7.42483e-07, -9.38193e-08, 0.249529, 0.0474731, -0.0560788, 0.965576, 1, 1, 1, 0.5, 1, 1.87395e-07, -8.2815e-07, -1.0009e-07, 0.272649, 0.0525026, -0.0622529, 0.958661, 1, 1, 1, 0.541667, 1, 1.45616e-07, -1.0066e-06, -2.52999e-07, 0.273748, 0.0527422, -0.0625473, 0.958315, 1, 1, 1, 0.583333, 1, 7.76252e-08, -9.23938e-07, -1.58845e-07, 0.274422, 0.0528892, -0.0627281, 0.958102, 1, 1, 1, 0.625, 1, 1.74954e-07, -8.54213e-07, -7.65583e-08, 0.274723, 0.0529548, -0.0628087, 0.958007, 1, 1, 1, 0.666667, 1, 3.23909e-07, -7.39842e-07, -1.77805e-07, 0.274723, 0.0529548, -0.0628088, 0.958007, 1, 1, 1, 0.708333, 1, 2.24651e-07, -7.89639e-07, -1.34458e-07, 0.274513, 0.052909, -0.0627524, 0.958074, 1, 1, 1, 0.75, 1, 1.82339e-07, -7.64008e-07, -7.45193e-08, 0.274193, 0.0528391, -0.0626665, 0.958175, 1, 1, 1, 0.791667, 1, 1.50207e-07, -8.26986e-07, -1.01948e-07, 0.273863, 0.0527672, -0.0625781, 0.958279, 1, 1, 1, 0.833333, 1, 2.49465e-07, -7.77189e-07, -1.45295e-07, 0.273615, 0.0527132, -0.0625117, 0.958357, 1, 1, 1, 0.875, 1, 1.75021e-07, -8.14537e-07, -1.12785e-07, 0.273522, 0.0526929, -0.0624867, 0.958387, 1, 1, 1, 0.916667, 1, 2.49465e-07, -7.77189e-07, -1.45295e-07, 0.273615, 0.0527132, -0.0625117, 0.958357, 1, 1, 1, 0.958333, 1, 1.75021e-07, -8.14537e-07, -1.12785e-07, 0.273863, 0.0527672, -0.062578, 0.958279, 1, 1, 1, 1, 1, 1.9152e-07, -8.32688e-07, -9.58583e-08, 0.274193, 0.0528391, -0.0626665, 0.958175, 1, 1, 1, 1.04167, 1, 5.09481e-08, -8.76782e-07, -5.86014e-08, 0.274513, 0.052909, -0.0627524, 0.958074, 1, 1, 1, 1.08333, 1, 1.24461e-07, -7.7983e-07, -6.13092e-08, 0.274723, 0.0529548, -0.0628088, 0.958007, 1, 1, 1, 1.125, 1, 1.90588e-07, -7.73083e-07, -6.6056e-08, 0.274723, 0.0529547, -0.0628087, 0.958007, 1, 1, 1, 1.16667, 1, 2.09948e-07, -8.70768e-07, -2.04565e-07, 0.274422, 0.0528892, -0.0627282, 0.958102, 1, 1, 1, 1.20833, 1, 6.10599e-08, -9.45462e-07, -1.39545e-07, 0.273748, 0.0527422, -0.0625474, 0.958315, 1, 1, 1, 1.25, 1, 1.8327e-07, -8.23612e-07, -1.04322e-07, 0.272649, 0.0525027, -0.0622529, 0.958661, 1, 1, 1, 1.29167, 1, 1.87462e-07, -7.88474e-07, -1.36317e-07, 0.271103, 0.0521656, -0.0618385, 0.959144, 1, 1, 1, 1.375, 1, 2.65963e-07, -7.95341e-07, -1.28368e-07, 0.266726, 0.0512119, -0.0606666, 0.960497, 1, 1, 1, 1.66667, 1, 1.50007e-07, -8.84321e-07, -1.93471e-07, 0.247551, 0.0470441, -0.0555529, 0.966136, 1, 1, 1, 1.70833, 1, 1.81009e-07, -8.78679e-07, -1.9796e-07, 0.246263, 0.0467649, -0.0552108, 0.966498, 1, 1, 1, 1.75, 1, 1.77084e-07, -8.16806e-07, -1.10669e-07, 0.245808, 0.0466661, -0.0550897, 0.966626, 1, 1, 1 )
tracks/3/type = "transform"
tracks/3/path = NodePath("metarig/Skeleton:Bowljoint.L")
tracks/3/interp = 1
tracks/3/loop_wrap = true
tracks/3/imported = true
tracks/3/enabled = true
tracks/3/keys = PoolRealArray( 0.0416666, 1, -1.18613e-07, 2.40999e-08, 3.63718e-07, 0.172277, -0.0512024, 0.0608559, 0.981833, 1, 1, 1, 0.0833333, 1, -1.26929e-07, 5.47004e-08, 3.35955e-07, 0.170998, -0.0507722, 0.0603439, 0.98211, 1, 1, 1, 0.125, 1, -2.76705e-08, 4.90424e-09, 3.79301e-07, 0.168921, -0.0500739, 0.0595124, 0.982556, 1, 1, 1, 0.166667, 1, -6.07343e-08, 8.27752e-09, 3.76928e-07, 0.166068, -0.0491158, 0.0583712, 0.983159, 1, 1, 1, 0.25, 1, -2.12167e-08, -8.53009e-08, 3.17658e-07, 0.158094, -0.0464414, 0.055187, 0.984786, 1, 1, 1, 0.833333, 1, -1.32346e-08, 2.07868e-08, 3.6449e-07, 0.0667889, -0.018057, 0.0213943, 0.997374, 1, 1, 1, 0.875, 1, 3.04073e-08, -6.82537e-08, 3.00988e-07, 0.0657822, -0.0177576, 0.0210379, 0.997454, 1, 1, 1, 0.916667, 1, -6.69884e-08, 4.1147e-08, 3.47049e-07, 0.0667888, -0.018057, 0.0213943, 0.997374, 1, 1, 1, 0.958333, 1, -5.15538e-08, 7.69579e-08, 3.98267e-07, 0.0696502, -0.0189089, 0.0224081, 0.997141, 1, 1, 1, 1, 1, 4.69734e-08, -8.97788e-08, 3.20289e-07, 0.0741, -0.0202365, 0.0239878, 0.996757, 1, 1, 1, 1.70833, 1, 2.8345e-08, -7.05227e-08, 3.03104e-07, 0.172277, -0.0512024, 0.0608559, 0.981833, 1, 1, 1, 1.75, 1, -6.89834e-08, -7.9817e-10, 3.85391e-07, 0.172716, -0.0513502, 0.061032, 0.981737, 1, 1, 1 )
tracks/4/type = "transform"
tracks/4/path = NodePath("metarig/Skeleton:Forearm.L")
tracks/4/interp = 1
tracks/4/loop_wrap = true
tracks/4/imported = true
tracks/4/enabled = true
tracks/4/keys = PoolRealArray( 0.0416666, 1, -4.24531e-07, 6.68838e-07, -1.0722e-07, 0.0567694, -0.368617, 0.258175, 0.891204, 1, 1, 1, 0.0833333, 1, -4.5834e-07, 6.57143e-07, -2.08713e-07, 0.0563389, -0.367155, 0.258268, 0.891808, 1, 1, 1, 0.125, 1, -2.47842e-07, 8.02547e-07, -1.78506e-07, 0.0556402, -0.364778, 0.258417, 0.892783, 1, 1, 1, 0.166667, 1, -4.21587e-07, 7.58563e-07, -2.20183e-07, 0.0546813, -0.361509, 0.25862, 0.894112, 1, 1, 1, 0.25, 1, -4.80027e-07, 7.18939e-07, -1.96396e-07, 0.0520008, -0.352352, 0.259175, 0.89776, 1, 1, 1, 0.833333, 1, -3.3081e-07, 7.64088e-07, -4.12922e-08, 0.0244191, -0.247358, 0.264292, 0.931862, 1, 1, 1, 0.875, 1, -3.55135e-07, 8.27165e-07, -1.30391e-07, 0.0241344, -0.246191, 0.264333, 0.932167, 1, 1, 1, 0.916667, 1, -3.66091e-07, 7.08462e-07, -1.31008e-07, 0.0244191, -0.247358, 0.264292, 0.931862, 1, 1, 1, 0.958333, 1, -3.74308e-07, 6.19435e-07, -1.3147e-07, 0.0252295, -0.250673, 0.264171, 0.930989, 1, 1, 1, 1, 1, -3.44199e-07, 7.06715e-07, -2.56443e-07, 0.0264937, -0.255824, 0.263977, 0.929607, 1, 1, 1, 1.70833, 1, -5.24976e-07, 7.67645e-07, -5.87196e-08, 0.0567694, -0.368617, 0.258175, 0.891204, 1, 1, 1, 1.75, 1, -4.46218e-07, 7.30634e-07, -9.49021e-08, 0.0569174, -0.369119, 0.258143, 0.890996, 1, 1, 1 )
tracks/5/type = "transform"
tracks/5/path = NodePath("metarig/Skeleton:Forearm.R")
tracks/5/interp = 1
tracks/5/loop_wrap = true
tracks/5/imported = true
tracks/5/enabled = true
tracks/5/keys = PoolRealArray( 0.0416666, 1, 2.7511e-07, 1.37381e-06, -3.03652e-07, 0.264321, 0.208578, -0.0010458, 0.94161, 1, 1, 1, 0.0833333, 1, 2.28995e-07, 1.27989e-06, -3.28134e-07, 0.265269, 0.209518, -0.000988352, 0.941134, 1, 1, 1, 0.125, 1, 1.44964e-07, 1.24218e-06, -2.21088e-07, 0.266727, 0.210962, -0.000900081, 0.9404, 1, 1, 1, 0.5, 1, 1.69391e-07, 1.2743e-06, -2.08925e-07, 0.28376, 0.22781, 0.000130599, 0.931441, 1, 1, 1, 0.541667, 1, 1.7213e-07, 1.24463e-06, -2.09079e-07, 0.284568, 0.228608, 0.00017857, 0.930999, 1, 1, 1, 0.583333, 1, 1.63913e-07, 1.33365e-06, -2.08616e-07, 0.285064, 0.229098, 0.000208057, 0.930727, 1, 1, 1, 0.625, 1, 1.21907e-07, 1.19522e-06, -2.33329e-07, 0.285284, 0.229317, 0.000221158, 0.930606, 1, 1, 1, 0.666667, 1, 1.69391e-07, 1.2743e-06, -2.08925e-07, 0.285285, 0.229317, 0.000221174, 0.930605, 1, 1, 1, 0.708333, 1, 1.1232e-07, 1.29909e-06, -2.32789e-07, 0.28513, 0.229164, 0.000212, 0.93069, 1, 1, 1, 0.75, 1, 2.80792e-07, 1.25441e-06, -1.61041e-07, 0.284895, 0.228931, 0.000197999, 0.93082, 1, 1, 1, 0.791667, 1, 2.31735e-07, 1.25021e-06, -3.28288e-07, 0.284652, 0.228692, 0.000183585, 0.930953, 1, 1, 1, 0.833333, 1, 1.66652e-07, 1.30398e-06, -2.0877e-07, 0.28447, 0.228512, 0.00017275, 0.931053, 1, 1, 1, 0.875, 1, 1.69391e-07, 1.2743e-06, -2.08925e-07, 0.284402, 0.228444, 0.000168702, 0.93109, 1, 1, 1, 0.916667, 1, 1.66652e-07, 1.30398e-06, -2.0877e-07, 0.28447, 0.228512, 0.00017275, 0.931053, 1, 1, 1, 0.958333, 1, 8.25182e-08, 1.29536e-06, -1.43382e-07, 0.284652, 0.228692, 0.000183577, 0.930953, 1, 1, 1, 1, 1, 2.3057e-07, 1.205e-06, -1.85291e-07, 0.284895, 0.228931, 0.000197995, 0.93082, 1, 1, 1, 1.04167, 1, 1.17799e-07, 1.23974e-06, -2.33098e-07, 0.28513, 0.229164, 0.000211996, 0.93069, 1, 1, 1, 1.08333, 1, 2.7511e-07, 1.37381e-06, -3.03652e-07, 0.285284, 0.229317, 0.000221178, 0.930606, 1, 1, 1, 1.125, 1, 1.74869e-07, 1.21495e-06, -2.09233e-07, 0.285284, 0.229317, 0.000221182, 0.930606, 1, 1, 1, 1.16667, 1, 2.3057e-07, 1.205e-06, -1.85291e-07, 0.285064, 0.229098, 0.000208005, 0.930727, 1, 1, 1, 1.20833, 1, 1.69391e-07, 1.2743e-06, -2.08925e-07, 0.284568, 0.228608, 0.000178586, 0.930999, 1, 1, 1, 1.25, 1, 2.292e-07, 1.21984e-06, -1.85214e-07, 0.28376, 0.22781, 0.000130579, 0.931441, 1, 1, 1, 1.29167, 1, 1.16429e-07, 1.25457e-06, -2.33021e-07, 0.282624, 0.226686, 6.29581e-05, 0.932061, 1, 1, 1, 1.375, 1, 1.1232e-07, 1.29909e-06, -2.32789e-07, 0.279399, 0.2235, -0.000132368, 0.933801, 1, 1, 1, 1.66667, 1, 2.28995e-07, 1.27989e-06, -3.28134e-07, 0.265269, 0.209518, -0.000988352, 0.941134, 1, 1, 1, 1.70833, 1, 2.72371e-07, 1.40348e-06, -3.03498e-07, 0.264321, 0.208578, -0.00104583, 0.94161, 1, 1, 1, 1.75, 1, 1.17799e-07, 1.23974e-06, -2.33098e-07, 0.263985, 0.208246, -0.00106618, 0.941777, 1, 1, 1 )
tracks/6/type = "transform"
tracks/6/path = NodePath("metarig/Skeleton:L.Wrist")
tracks/6/interp = 1
tracks/6/loop_wrap = true
tracks/6/imported = true
tracks/6/enabled = true
tracks/6/keys = PoolRealArray( 0.0416666, 1, 3.42644e-07, -7.49751e-07, -7.42985e-07, -1.74157e-07, -6.92672e-09, 0.941176, 0.337917, 1, 1, 1, 0.0833333, 1, 3.42685e-07, -7.79535e-07, -7.44022e-07, -1.86788e-07, -2.68259e-08, 0.937366, 0.348346, 1, 1, 1, 0.125, 1, 3.72488e-07, -7.8326e-07, -6.24812e-07, -1.44114e-07, -2.10167e-08, 0.930585, 0.366077, 1, 1, 1, 0.166667, 1, 4.30942e-07, -8.42328e-07, -6.38937e-07, -1.7009e-07, -1.92363e-08, 0.919881, 0.392197, 1, 1, 1, 0.208333, 1, 2.84189e-07, -6.90683e-07, -7.2886e-07, -1.93791e-07, -2.78318e-08, 0.90349, 0.42861, 1, 1, 1, 0.25, 1, 3.72363e-07, -6.93908e-07, -6.21703e-07, -1.82399e-07, -3.7116e-08, 0.878228, 0.478243, 1, 1, 1, 0.291667, 1, 3.14033e-07, -7.24192e-07, -6.10687e-07, -1.26402e-07, -4.78277e-08, 0.838288, 0.545228, 1, 1, 1, 0.333333, 1, 3.4281e-07, -8.68888e-07, -7.47131e-07, -1.24765e-07, -8.21979e-08, 0.772928, 0.634494, 1, 1, 1, 0.375, 1, 4.30859e-07, -7.8276e-07, -6.36864e-07, -1.36818e-07, -6.9653e-08, 0.66283, 0.74877, 1, 1, 1, 0.416667, 1, 3.72612e-07, -8.72613e-07, -6.27922e-07, -1.07147e-07, -1.03964e-07, 0.478851, 0.877896, 1, 1, 1, 0.458333, 1, 3.14241e-07, -8.73114e-07, -6.1587e-07, -6.18032e-08, -1.59737e-07, 0.201464, 0.979496, 1, 1, 1, 0.5, 1, 4.31108e-07, -9.61466e-07, -6.43083e-07, -2.53486e-08, -1.6899e-07, -0.126255, 0.991998, 1, 1, 1, 0.541667, 1, 3.42727e-07, -8.09319e-07, -7.45058e-07, 1.01998e-09, -1.59116e-07, -0.407775, 0.913082, 1, 1, 1, 0.583333, 1, 3.86114e-07, -7.45525e-07, -8.44444e-07, 7.3182e-08, -1.90505e-07, -0.597666, 0.801745, 1, 1, 1, 0.625, 1, 3.42644e-07, -7.49751e-07, -7.42985e-07, 1.18224e-07, -2.00583e-07, -0.713057, 0.701106, 1, 1, 1, 0.666667, 1, 2.26026e-07, -8.40105e-07, -7.21991e-07, 1.10567e-07, -2.1964e-07, -0.781973, 0.623312, 1, 1, 1, 0.708333, 1, 3.4281e-07, -8.68888e-07, -7.47131e-07, 1.46075e-07, -1.60847e-07, -0.823421, 0.567431, 1, 1, 1, 0.75, 1, 3.27743e-07, -7.46026e-07, -8.32392e-07, 1.14219e-07, -1.33549e-07, -0.847999, 0.529999, 1, 1, 1, 0.791667, 1, 4.31066e-07, -9.31681e-07, -6.42047e-07, 2.10714e-07, -1.50248e-07, -0.861191, 0.508281, 1, 1, 1, 0.833333, 1, 4.30942e-07, -8.42328e-07, -6.38937e-07, 1.28257e-07, -1.44986e-07, -0.865426, 0.501036, 1, 1, 1, 0.875, 1, 3.42768e-07, -8.39104e-07, -7.46095e-07, 1.89597e-07, -1.30116e-07, -0.865427, 0.501036, 1, 1, 1, 0.916667, 1, 4.0114e-07, -8.38603e-07, -7.58146e-07, 1.08248e-07, -1.76133e-07, -0.861586, 0.507612, 1, 1, 1, 0.958333, 1, 4.30859e-07, -7.8276e-07, -6.36864e-07, 1.96055e-07, -1.7486e-07, -0.849689, 0.527285, 1, 1, 1, 1, 1, 4.30983e-07, -8.72112e-07, -6.39974e-07, 1.04581e-07, -1.09561e-07, -0.827794, 0.561032, 1, 1, 1, 1.04167, 1, 4.01015e-07, -7.4925e-07, -7.55037e-07, 1.43261e-07, -1.22687e-07, -0.791568, 0.611081, 1, 1, 1, 1.08333, 1, 2.26026e-07, -8.40105e-07, -7.21991e-07, 9.0334e-08, -2.18991e-07, -0.732799, 0.680445, 1, 1, 1, 1.125, 1, 3.72446e-07, -7.53476e-07, -6.23776e-07, 7.12737e-08, -1.66708e-07, -0.636903, 0.770944, 1, 1, 1, 1.16667, 1, 4.01015e-07, -7.4925e-07, -7.55037e-07, 6.48042e-08, -2.12473e-07, -0.481126, 0.876652, 1, 1, 1, 1.20833, 1, 4.30859e-07, -7.8276e-07, -6.36864e-07, -1.72834e-08, -1.61312e-07, -0.243354, 0.969938, 1, 1, 1, 1.25, 1, 4.31108e-07, -9.61466e-07, -6.43083e-07, -5.41196e-08, -1.60493e-07, 0.061636, 0.998099, 1, 1, 1, 1.29167, 1, 3.14241e-07, -8.73114e-07, -6.1587e-07, -5.68503e-08, -1.31653e-07, 0.357859, 0.933776, 1, 1, 1, 1.33333, 1, 3.72612e-07, -8.72613e-07, -6.27922e-07, -1.65436e-07, -8.21473e-08, 0.577656, 0.81628, 1, 1, 1, 1.375, 1, 4.30859e-07, -7.8276e-07, -6.36864e-07, -1.14933e-07, -5.3457e-08, 0.717192, 0.696876, 1, 1, 1, 1.41667, 1, 2.84438e-07, -8.69388e-07, -7.35079e-07, -1.23123e-07, -2.18193e-08, 0.801818, 0.597568, 1, 1, 1, 1.45833, 1, 3.42644e-07, -7.49751e-07, -7.42985e-07, -1.25209e-07, -1.43096e-08, 0.853758, 0.52067, 1, 1, 1, 1.5, 1, 4.31066e-07, -9.31681e-07, -6.42047e-07, -1.84873e-07, -6.3025e-08, 0.886622, 0.462495, 1, 1, 1, 1.54167, 1, 3.72405e-07, -7.23692e-07, -6.22739e-07, -1.43589e-07, -4.10253e-08, 0.908046, 0.41887, 1, 1, 1, 1.58333, 1, 3.8743e-07, -8.15839e-07, -5.36442e-07, -1.9792e-07, -2.32253e-08, 0.92229, 0.3865, 1, 1, 1, 1.625, 1, 3.72488e-07, -7.8326e-07, -6.24812e-07, -1.55926e-07, -1.09948e-08, 0.931764, 0.363064, 1, 1, 1, 1.66667, 1, 3.14033e-07, -7.24192e-07, -6.10687e-07, -1.98609e-07, 1.98609e-09, 0.937847, 0.347049, 1, 1, 1, 1.70833, 1, 4.59386e-07, -7.48749e-07, -7.67088e-07, -1.58305e-07, -9.89409e-09, 0.941292, 0.337593, 1, 1, 1, 1.75, 1, 4.30859e-07, -7.8276e-07, -6.36864e-07, -1.58115e-07, -2.37172e-08, 0.942428, 0.33441, 1, 1, 1 )
tracks/7/type = "transform"
tracks/7/path = NodePath("metarig/Skeleton:upper_arm.L")
tracks/7/interp = 1
tracks/7/loop_wrap = true
tracks/7/imported = true
tracks/7/enabled = true
tracks/7/keys = PoolRealArray( 0.0416666, 1, 3.27826e-07, -1.67638e-07, -4.24683e-07, -0.404603, 0.140866, -0.165154, 0.888357, 1, 1, 1, 0.0833333, 1, 3.27826e-07, -1.67638e-07, -4.24683e-07, -0.400703, 0.140396, -0.166075, 0.890025, 1, 1, 1, 0.125, 1, 3.27826e-07, -1.67638e-07, -4.24683e-07, -0.394499, 0.139639, -0.167526, 0.89264, 1, 1, 1, 0.208333, 1, 3.27826e-07, -1.67638e-07, -4.24683e-07, -0.376099, 0.137323, -0.171737, 0.90011, 1, 0.999999, 1, 0.708333, 1, 3.27826e-07, -1.67638e-07, -4.24683e-07, -0.20283, 0.111193, -0.206466, 0.95072, 1, 0.999999, 1, 0.75, 1, 3.27826e-07, -1.67638e-07, -4.24683e-07, -0.193061, 0.109519, -0.208219, 0.952564, 1, 0.999999, 1, 0.791667, 1, 3.27826e-07, -1.67638e-07, -4.24683e-07, -0.185624, 0.108232, -0.209542, 0.953898, 1, 0.999999, 1, 0.833333, 1, 3.27826e-07, -1.67638e-07, -4.24683e-07, -0.180895, 0.107407, -0.210377, 0.954716, 1, 0.999999, 1, 0.875, 1, 3.27826e-07, -1.67638e-07, -4.24683e-07, -0.179241, 0.107118, -0.210669, 0.954996, 1, 0.999999, 1, 0.916667, 1, 3.27826e-07, -1.67638e-07, -4.24683e-07, -0.180895, 0.107407, -0.210377, 0.954716, 1, 0.999999, 1, 0.958333, 1, 3.27826e-07, -1.67638e-07, -4.24683e-07, -0.185624, 0.108232, -0.209542, 0.953898, 1, 0.999999, 1, 1, 1, 3.27826e-07, -1.67638e-07, -4.24683e-07, -0.193061, 0.109519, -0.208219, 0.952564, 1, 0.999999, 1, 1.08333, 1, 3.27826e-07, -1.67638e-07, -4.24683e-07, -0.214552, 0.113176, -0.204337, 0.94837, 1, 0.999999, 1, 1.58333, 1, 3.27826e-07, -1.67638e-07, -4.24683e-07, -0.386222, 0.13861, -0.169437, 0.896053, 1, 1, 1, 1.625, 1, 3.27826e-07, -1.67638e-07, -4.24683e-07, -0.394499, 0.139639, -0.167526, 0.89264, 1, 1, 1, 1.66667, 1, 3.27826e-07, -1.67638e-07, -4.24683e-07, -0.400703, 0.140396, -0.166075, 0.890025, 1, 1, 1, 1.70833, 1, 3.27826e-07, -1.67638e-07, -4.24683e-07, -0.404603, 0.140866, -0.165154, 0.888357, 1, 1, 1, 1.75, 1, 3.27826e-07, -1.67638e-07, -4.24683e-07, -0.405959, 0.141029, -0.164832, 0.887772, 1, 0.999999, 1 )
tracks/8/type = "transform"
tracks/8/path = NodePath("metarig/Skeleton:upper_arm.R")
tracks/8/interp = 1
tracks/8/loop_wrap = true
tracks/8/imported = true
tracks/8/enabled = true
tracks/8/keys = PoolRealArray( 0.0416666, 1, -5.36442e-07, 2.6077e-07, 2.68221e-07, -0.323708, -0.0665816, 0.109261, 0.937466, 1, 1, 1, 0.0833333, 1, -5.36442e-07, 2.6077e-07, 2.68221e-07, -0.327989, -0.066425, 0.107964, 0.936138, 1, 1, 1, 0.125, 1, -5.36442e-07, 2.6077e-07, 2.68221e-07, -0.334726, -0.0661717, 0.105894, 0.934005, 1, 1, 1, 0.208333, 1, -5.36442e-07, 2.6077e-07, 2.68221e-07, -0.354203, -0.0653904, 0.0997052, 0.927536, 1, 1, 1, 0.5, 1, -5.36442e-07, 2.6077e-07, 2.68221e-07, -0.449027, -0.0603242, 0.0637604, 0.889197, 1, 1, 1, 0.666667, 1, -5.36442e-07, 2.6077e-07, 2.68221e-07, -0.493176, -0.0569977, 0.0415737, 0.867064, 1, 1, 1, 0.708333, 1, -5.36442e-07, 2.6077e-07, 2.68221e-07, -0.500956, -0.0563215, 0.037034, 0.862844, 1, 1, 1, 0.75, 1, -5.36442e-07, 2.6077e-07, 2.68221e-07, -0.507192, -0.0557562, 0.0332097, 0.859386, 1, 1, 1, 0.791667, 1, -5.36442e-07, 2.6077e-07, 2.68221e-07, -0.511789, -0.055325, 0.0302725, 0.856794, 1, 1, 1, 0.833333, 1, -5.36442e-07, 2.6077e-07, 2.68221e-07, -0.514643, -0.0550508, 0.0283933, 0.855164, 1, 1, 1, 0.875, 1, -5.36442e-07, 2.6077e-07, 2.68221e-07, -0.515629, -0.0549549, 0.0277339, 0.854598, 1, 1, 1, 0.916667, 1, -5.36442e-07, 2.6077e-07, 2.68221e-07, -0.514643, -0.0550508, 0.0283933, 0.855164, 1, 1, 1, 0.958333, 1, -5.36442e-07, 2.6077e-07, 2.68221e-07, -0.511789, -0.055325, 0.0302725, 0.856794, 1, 1, 1, 1, 1, -5.36442e-07, 2.6077e-07, 2.68221e-07, -0.507192, -0.0557561, 0.0332097, 0.859386, 1, 1, 1, 1.04167, 1, -5.36442e-07, 2.6077e-07, 2.68221e-07, -0.500956, -0.0563216, 0.0370339, 0.862844, 1, 1, 1, 1.16667, 1, -5.36442e-07, 2.6077e-07, 2.68221e-07, -0.473421, -0.0585846, 0.0521519, 0.877337, 1, 1, 1, 1.33333, 1, -5.36442e-07, 2.6077e-07, 2.68221e-07, -0.421574, -0.0620395, 0.0754109, 0.901521, 1, 1, 1, 1.625, 1, -5.36442e-07, 2.6077e-07, 2.68221e-07, -0.334726, -0.0661718, 0.105894, 0.934005, 1, 1, 1, 1.66667, 1, -5.36442e-07, 2.6077e-07, 2.68221e-07, -0.327989, -0.066425, 0.107964, 0.936138, 1, 1, 1, 1.70833, 1, -5.36442e-07, 2.6077e-07, 2.68221e-07, -0.323708, -0.0665815, 0.109261, 0.937466, 1, 1, 1, 1.75, 1, -5.36442e-07, 2.6077e-07, 2.68221e-07, -0.322212, -0.0666355, 0.109712, 0.937925, 1, 1, 1 )

[sub_resource type="Animation" id=5]

resource_name = "Idle"
length = 3.0
loop = true
step = 0.1
tracks/0/type = "value"
tracks/0/path = NodePath(".:rotation_degrees")
tracks/0/interp = 1
tracks/0/loop_wrap = true
tracks/0/imported = false
tracks/0/enabled = true
tracks/0/keys = {
"times": PoolRealArray( 0, 1.5, 3 ),
"transitions": PoolRealArray( -4, 1, -4 ),
"update": 0,
"values": [ Vector3( 0, 0, 0 ), Vector3( 0.5, 0, 0 ), Vector3( 0, 0, 0 ) ]
}

[node name="Player" type="KinematicBody"]

input_ray_pickable = true
input_capture_on_drag = false
collision_layer = 1
collision_mask = 1
axis_lock_linear_x = false
axis_lock_linear_y = false
axis_lock_linear_z = false
axis_lock_angular_x = false
axis_lock_angular_y = false
axis_lock_angular_z = false
collision/safe_margin = 0.001
script = ExtResource( 1 )
_sections_unfolded = [ "Collision", "collision" ]

[node name="AnimationPlayer2" type="AnimationPlayer" parent="." index="0"]

root_node = NodePath("..")
autoplay = "Flicker"
playback_process_mode = 1
playback_default_blend_time = 0.0
playback_speed = 1.0
anims/Flicker = ExtResource( 2 )
blend_times = [  ]

[node name="OmniLight" type="OmniLight" parent="." index="1"]

transform = Transform( 4.19292, 0, 6.3519, 0, 7.61093, 0, -6.3519, 0, 4.19292, -1.28678, 5.68853, 2.43351 )
visible = false
layers = 1
light_color = Color( 1, 0.759491, 0.566406, 1 )
light_energy = 0.04
light_indirect_energy = 1.0
light_negative = false
light_specular = 0.5
light_bake_mode = 1
light_cull_mask = -1
shadow_enabled = false
shadow_color = Color( 0, 0, 0, 1 )
shadow_bias = 0.15
shadow_contact = 0.0
shadow_reverse_cull_face = false
editor_only = false
omni_range = 52.1195
omni_attenuation = 1.0
omni_shadow_mode = 1
omni_shadow_detail = 1
_sections_unfolded = [ "Omni", "Shadow" ]

[node name="OmniLight2" type="OmniLight" parent="." index="2"]

transform = Transform( 4.19292, 0, 6.3519, 0, 7.61093, 0, -6.3519, 0, 4.19292, -1.28678, 5.68853, 2.43351 )
visible = false
layers = 1
light_color = Color( 0.6, 0.388235, 0.0862745, 1 )
light_energy = 16.0
light_indirect_energy = 16.0
light_negative = false
light_specular = 0.5
light_bake_mode = 1
light_cull_mask = -1
shadow_enabled = true
shadow_color = Color( 0.40625, 0.40625, 0.40625, 1 )
shadow_bias = 3.7
shadow_contact = 0.0
shadow_reverse_cull_face = false
editor_only = false
omni_range = 26.3127
omni_attenuation = 14.4198
omni_shadow_mode = 1
omni_shadow_detail = 1
_sections_unfolded = [ "Light", "Omni", "Shadow" ]

[node name="OmniLight4" type="OmniLight" parent="." index="3"]

transform = Transform( 0.634712, 0, 0.961531, 0, 1.15212, 0, -0.961531, 0, 0.634712, -1.28678, 5.68853, 2.48502 )
visible = false
layers = 1
light_color = Color( 0.6, 0.388235, 0.0862745, 1 )
light_energy = 16.0
light_indirect_energy = 16.0
light_negative = false
light_specular = 0.5
light_bake_mode = 1
light_cull_mask = -1
shadow_enabled = true
shadow_color = Color( 0.40625, 0.40625, 0.40625, 1 )
shadow_bias = 3.7
shadow_contact = 0.0
shadow_reverse_cull_face = false
editor_only = false
omni_range = 42.0914
omni_attenuation = 21.1118
omni_shadow_mode = 1
omni_shadow_detail = 1
_sections_unfolded = [ "Light", "Omni", "Shadow" ]

[node name="OmniLight3" type="OmniLight" parent="." index="4"]

transform = Transform( 0.634712, 0, 0.961531, 0, 1.15212, 0, -0.961531, 0, 0.634712, -1.28333, 5.73361, 2.47179 )
visible = false
layers = 1
light_color = Color( 1, 0, 0, 1 )
light_energy = 1.65
light_indirect_energy = 0.33
light_negative = false
light_specular = 0.5
light_bake_mode = 1
light_cull_mask = -1
shadow_enabled = false
shadow_color = Color( 0.722656, 0.722656, 0.722656, 1 )
shadow_bias = 3.0
shadow_contact = 0.0
shadow_reverse_cull_face = false
editor_only = false
omni_range = 9.04682
omni_attenuation = 3.13833
omni_shadow_mode = 1
omni_shadow_detail = 1
_sections_unfolded = [ "Light", "Omni", "Shadow" ]

[node name="OmniLight6" type="OmniLight" parent="." index="5"]

transform = Transform( 0.634712, 0, 0.961531, 0, 1.15212, 0, -0.961531, 0, 0.634712, -1.28333, 5.02612, 1.67294 )
visible = false
layers = 1
light_color = Color( 1, 0.539062, 0, 1 )
light_energy = 2.08
light_indirect_energy = 0.33
light_negative = false
light_specular = 0.5
light_bake_mode = 1
light_cull_mask = -1
shadow_enabled = false
shadow_color = Color( 0.722656, 0.722656, 0.722656, 1 )
shadow_bias = 3.0
shadow_contact = 0.0
shadow_reverse_cull_face = false
editor_only = false
omni_range = 1.87925
omni_attenuation = 1.7411
omni_shadow_mode = 1
omni_shadow_detail = 1
_sections_unfolded = [ "Light", "Omni", "Shadow" ]

[node name="Body_Collision_Shape" type="CollisionShape" parent="." index="6"]

transform = Transform( 1, 0, 0, 0, -0.00341502, 0.999994, 0, -0.999994, -0.00341502, 0, 3.65296, 0 )
shape = SubResource( 1 )
disabled = false
_sections_unfolded = [ "Transform" ]

[node name="Feet_Collision_Shape" type="CollisionShape" parent="." index="7"]

transform = Transform( 1.4493, 0, 0, 0, 0.436031, 0, 0, 0, 1.00294, 0, 0.422017, 0 )
shape = SubResource( 2 )
disabled = false
_sections_unfolded = [ "Transform" ]

[node name="Rotation_Helper" type="Spatial" parent="." index="8"]

editor/display_folded = true
transform = Transform( 1, 0, 0, 0, 1, 0, 0, 0, 1, 0, 5.93247, 0 )
_sections_unfolded = [ "Transform", "Visibility" ]

[node name="Camera" type="Camera" parent="Rotation_Helper" index="0"]

transform = Transform( -1, 0, 3.25841e-07, 0, 1, 0, -3.25841e-07, 0, -1, 0, -0.412832, -1.07358 )
keep_aspect = 1
cull_mask = 1048575
environment = null
h_offset = 0.0
v_offset = 0.0
doppler_tracking = 0
projection = 0
current = true
fov = 70.0
size = 1.0
near = 0.5
far = 200.0
_sections_unfolded = [ "Transform" ]

[node name="Flashlight" type="SpotLight" parent="Rotation_Helper" index="1"]

transform = Transform( -1, 0, 1.50996e-07, 0, 1, 0, -1.50996e-07, 0, -1, 0, 0, 1.23996 )
visible = false
layers = 1
light_color = Color( 1, 1, 1, 1 )
light_energy = 0.25
light_indirect_energy = 0.5
light_negative = false
light_specular = 0.5
light_bake_mode = 1
light_cull_mask = -1
shadow_enabled = false
shadow_color = Color( 0, 0, 0, 1 )
shadow_bias = 0.15
shadow_contact = 0.0
shadow_reverse_cull_face = false
editor_only = false
spot_range = 75.0
spot_attenuation = 1.0
spot_angle = 45.0
spot_angle_attenuation = 1.0
_sections_unfolded = [ "Editor", "Light", "Shadow", "Spot", "Transform" ]

[node name="Arms" type="Spatial" parent="." index="9"]

transform = Transform( 1, 0, 0, 0, 0.999962, -0.0085573, 0, 0.0085573, 0.999962, 0, -0.475928, -1.08208 )
_sections_unfolded = [ "Transform" ]

[node name="Torch" parent="Arms" index="0" instance=ExtResource( 3 )]

transform = Transform( -1.51238, 0, -4.92795e-07, 0, 1.51238, 0, 4.92795e-07, 0, -1.51238, -2.59808, 4.65302, 4.16198 )
visible = false
_sections_unfolded = [ "Transform" ]

[node name="Rig" parent="Arms" index="1" instance=ExtResource( 4 )]

transform = Transform( 1, 0, 0, 0, 1, 0, 0, 0, 1, -0.0255229, 0.476923, -0.156786 )

[node name="Walk" type="AnimationPlayer" parent="Arms/Rig" index="3"]

root_node = NodePath("..")
autoplay = ""
playback_process_mode = 1
playback_default_blend_time = 0.0
playback_speed = 1.0
anims/Walk = SubResource( 3 )
anims/default = SubResource( 4 )
blend_times = [  ]

[node name="Idle" type="AnimationPlayer" parent="Arms" index="2"]

root_node = NodePath("..")
autoplay = "Idle"
playback_process_mode = 1
playback_default_blend_time = 0.0
playback_speed = 1.0
anims/Idle = SubResource( 5 )
blend_times = [  ]


