# Blender v2.80 (sub 53) OBJ File: 'Oorganic2Shiftbillboard.blend'
# www.blender.org
mtllib OrganicShiftbillboard2.mtl
o Plane
v 4.788876 -2.013215 -0.000000
v 4.788288 -0.013215 0.000000
v -0.011124 -2.013803 -0.000001
v -0.011712 -0.013803 0.000000
vt 0.999900 0.000100
vt 0.999900 0.999900
vt 0.000100 0.999900
vt 0.000100 0.000100
vn -0.0000 -0.0000 1.0000
usemtl Material.001
s off
f 1/1/1 2/2/1 4/3/1 3/4/1
