[gd_resource type="SpatialMaterial" load_steps=3 format=2]

[sub_resource type="StreamTexture" id=1]

flags = 7
load_path = "res://.import/water_normal_2.png-682bf3f80486904a57b5bd648c8bcb6e.s3tc.stex"

[sub_resource type="StreamTexture" id=2]

flags = 7
load_path = "res://.import/water 0346bnormal.jpg-8b0ad01c5718254c0df17e37169eb960.s3tc.stex"

[resource]

render_priority = 0
flags_transparent = true
flags_unshaded = false
flags_vertex_lighting = false
flags_no_depth_test = false
flags_use_point_size = false
flags_world_triplanar = false
flags_fixed_size = false
flags_albedo_tex_force_srgb = false
vertex_color_use_as_albedo = false
vertex_color_is_srgb = false
params_diffuse_mode = 0
params_specular_mode = 0
params_blend_mode = 0
params_cull_mode = 0
params_depth_draw_mode = 0
params_line_width = 1.0
params_point_size = 1.0
params_billboard_mode = 0
params_grow = false
params_use_alpha_scissor = false
albedo_color = Color( 0.0517578, 0.129196, 0.25, 0.817686 )
metallic = 0.0
metallic_specular = 1.0
metallic_texture_channel = 0
roughness = 0.0
roughness_texture_channel = 0
emission_enabled = false
normal_enabled = true
normal_scale = 0.0
normal_texture = SubResource( 1 )
rim_enabled = true
rim = 1.0
rim_tint = 0.5
clearcoat_enabled = false
anisotropy_enabled = false
ao_enabled = false
depth_enabled = false
subsurf_scatter_enabled = false
transmission_enabled = false
refraction_enabled = true
refraction_scale = -0.89
refraction_texture = SubResource( 2 )
refraction_texture_channel = 0
detail_enabled = false
uv1_scale = Vector3( 1, 1, 0 )
uv1_offset = Vector3( 9.77503, 0, 0 )
uv1_triplanar = false
uv1_triplanar_sharpness = 1.0
uv2_scale = Vector3( 1, 1, 1 )
uv2_offset = Vector3( 0, 0, 0 )
uv2_triplanar = false
uv2_triplanar_sharpness = 1.0
proximity_fade_enable = true
proximity_fade_distance = 1.0
distance_fade_enable = true
distance_fade_min_distance = 0.0
distance_fade_max_distance = 10.0
_sections_unfolded = [ "Albedo", "Anisotropy", "Depth", "Distance Fade", "Refraction", "Rim", "Roughness", "Subsurf Scatter", "Transmission", "UV1" ]

